<svg xmlns="http://www.w3.org/2000/svg" width="98" height="98" viewBox="0 0 98 98">
  <g id="Group_616" data-name="Group 616" transform="translate(-360 -2188)">
    <g id="Ellipse_73" data-name="Ellipse 73" transform="translate(360 2188)" fill="none" stroke="#000" stroke-width="2" opacity="0.3">
      <circle cx="49" cy="49" r="49" stroke="none"/>
      <circle cx="49" cy="49" r="48" fill="none"/>
    </g>
    <g id="Group_320" data-name="Group 320" transform="translate(385.6 2171.531)" opacity="0.3">
      <path id="Path_1097" data-name="Path 1097" d="M37.2,46H9.6A9.608,9.608,0,0,0,0,55.6V70.421A9.443,9.443,0,0,0,6.79,79.5l4.635,4.636a1.371,1.371,0,0,0,1.939,0l4.252-4.252H37.2a9.608,9.608,0,0,0,9.6-9.6V55.6A9.608,9.608,0,0,0,37.2,46Zm6.855,24.285A6.863,6.863,0,0,1,37.2,77.14H17.049a1.372,1.372,0,0,0-.969.4L12.4,81.226,8.471,77.3a1.369,1.369,0,0,0-.638-.361,6.705,6.705,0,0,1-5.091-6.52V55.6A6.863,6.863,0,0,1,9.6,48.742H37.2A6.863,6.863,0,0,1,44.058,55.6Z"/>
      <path id="Path_1098" data-name="Path 1098" d="M164.541,189.828H147.129a1.371,1.371,0,0,0,0,2.742h17.411a1.371,1.371,0,0,0,0-2.742Z" transform="translate(-132.435 -130.681)"/>
      <path id="Path_1099" data-name="Path 1099" d="M164.541,242.852H147.129a1.371,1.371,0,0,0,0,2.742h17.411a1.371,1.371,0,0,0,0-2.742Z" transform="translate(-132.435 -178.858)"/>
    </g>
  </g>
</svg>
