<svg xmlns="http://www.w3.org/2000/svg" width="98" height="98" viewBox="0 0 98 98">
  <g id="Group_617" data-name="Group 617" transform="translate(-922 -2188)">
    <g id="Ellipse_75" data-name="Ellipse 75" transform="translate(922 2188)" fill="none" stroke="#000" stroke-width="2" opacity="0.3">
      <circle cx="49" cy="49" r="49" stroke="none"/>
      <circle cx="49" cy="49" r="48" fill="none"/>
    </g>
    <g id="Group_326" data-name="Group 326" transform="translate(851.916 2210)" opacity="0.3">
      <path id="Path_1116" data-name="Path 1116" d="M338.2,36.243a2.162,2.162,0,1,1,2.162-2.162A2.165,2.165,0,0,1,338.2,36.243Zm0-2.742a.58.58,0,1,0,.58.58A.581.581,0,0,0,338.2,33.5Z" transform="translate(-208.014 -28.553)" stroke="#000" stroke-width="0.5"/>
      <g id="Group_325" data-name="Group 325" transform="translate(103.5)">
        <path id="Path_1117" data-name="Path 1117" d="M131.1,0H108.065A4.571,4.571,0,0,0,103.5,4.565V8.5a.791.791,0,0,0,1.582,0V4.565a2.987,2.987,0,0,1,2.983-2.983H131.1a2.987,2.987,0,0,1,2.983,2.983V45.193h-29v-33a.791.791,0,1,0-1.582,0v37.24A4.571,4.571,0,0,0,108.066,54h18.221a.791.791,0,0,0,0-1.582H108.065a2.987,2.987,0,0,1-2.983-2.983V46.775h29v2.659a2.987,2.987,0,0,1-2.983,2.983h-1.125a.791.791,0,0,0,0,1.582H131.1a4.571,4.571,0,0,0,4.565-4.565V4.565A4.571,4.571,0,0,0,131.1,0Z" transform="translate(-103.5)" stroke="#000" stroke-width="0.5"/>
        <path id="Path_1118" data-name="Path 1118" d="M226.791,463.055a.791.791,0,1,0,0,1.582h4.746a.791.791,0,0,0,0-1.582Z" transform="translate(-213.08 -414.217)" stroke="#000" stroke-width="0.5"/>
        <path id="Path_1119" data-name="Path 1119" d="M221.318,117.26h4.957a1.32,1.32,0,0,0,1.318-1.318v-4.957a1.32,1.32,0,0,0-1.318-1.318h-4.957A1.32,1.32,0,0,0,220,110.984v4.957A1.32,1.32,0,0,0,221.318,117.26Zm.264-6.012h4.43v4.43h-4.43Z" transform="translate(-207.713 -98.1)" stroke="#000" stroke-width="0.5"/>
        <path id="Path_1120" data-name="Path 1120" d="M136.278,117.26h4.957a1.32,1.32,0,0,0,1.318-1.318v-4.957a1.32,1.32,0,0,0-1.318-1.318h-4.957a1.32,1.32,0,0,0-1.318,1.318v4.957A1.32,1.32,0,0,0,136.278,117.26Zm.264-6.012h4.43v4.43h-4.43Z" transform="translate(-131.642 -98.1)" stroke="#000" stroke-width="0.5"/>
        <path id="Path_1121" data-name="Path 1121" d="M306.358,117.26h4.957a1.32,1.32,0,0,0,1.318-1.318v-4.957a1.32,1.32,0,0,0-1.318-1.318h-4.957a1.32,1.32,0,0,0-1.318,1.318v4.957A1.32,1.32,0,0,0,306.358,117.26Zm.264-6.012h4.43v4.43h-4.43Z" transform="translate(-283.784 -98.1)" stroke="#000" stroke-width="0.5"/>
        <path id="Path_1122" data-name="Path 1122" d="M220,209.483a1.32,1.32,0,0,0,1.318,1.318h4.957a1.32,1.32,0,0,0,1.318-1.318v-4.957a1.32,1.32,0,0,0-1.318-1.318h-4.957A1.32,1.32,0,0,0,220,204.526Zm1.582-4.693h4.43v4.43h-4.43Z" transform="translate(-207.713 -181.776)" stroke="#000" stroke-width="0.5"/>
        <path id="Path_1123" data-name="Path 1123" d="M134.96,209.483a1.32,1.32,0,0,0,1.318,1.318h4.957a1.32,1.32,0,0,0,1.318-1.318v-4.957a1.32,1.32,0,0,0-1.318-1.318h-4.957a1.32,1.32,0,0,0-1.318,1.318Zm1.582-4.693h4.43v4.43h-4.43Z" transform="translate(-131.642 -181.776)" stroke="#000" stroke-width="0.5"/>
        <path id="Path_1124" data-name="Path 1124" d="M305.04,209.483a1.32,1.32,0,0,0,1.318,1.318h4.957a1.32,1.32,0,0,0,1.318-1.318v-4.957a1.32,1.32,0,0,0-1.318-1.318h-4.957a1.32,1.32,0,0,0-1.318,1.318Zm1.582-4.693h4.43v4.43h-4.43Z" transform="translate(-283.784 -181.776)" stroke="#000" stroke-width="0.5"/>
      </g>
    </g>
  </g>
</svg>
