<svg xmlns="http://www.w3.org/2000/svg" width="608.156" height="404.592" viewBox="0 0 608.156 404.592">
  <g id="Group_596" data-name="Group 596" transform="translate(-42.464 -17.667)">
    <g id="Group_516" data-name="Group 516" transform="translate(53.75 55.178)">
      <circle id="Ellipse_95" data-name="Ellipse 95" cx="48.184" cy="48.184" r="48.184" transform="matrix(0.929, -0.371, 0.371, 0.929, 3.951, 35.734)" fill="#c3dbe6"/>
      <circle id="Ellipse_96" data-name="Ellipse 96" cx="40.579" cy="40.579" r="40.579" transform="translate(19.936 96.066) rotate(-80.654)" fill="#fff"/>
      <circle id="Ellipse_97" data-name="Ellipse 97" cx="33.23" cy="33.23" r="33.23" transform="translate(19.572 62.616) rotate(-45)" fill="#c3dbe6"/>
      <circle id="Ellipse_98" data-name="Ellipse 98" cx="14.858" cy="14.858" r="14.858" transform="translate(49.51 74.888) rotate(-80.736)" fill="#fff"/>
      <circle id="Ellipse_99" data-name="Ellipse 99" cx="7.876" cy="7.876" r="7.876" transform="matrix(0.925, -0.381, 0.381, 0.925, 56.284, 58.331)" fill="#c3dbe6"/>
      <g id="Group_509" data-name="Group 509" transform="translate(0 79.479)">
        <g id="Group_506" data-name="Group 506" transform="translate(0 19.846)">
          <g id="Group_504" data-name="Group 504">
            <path id="Path_1475" data-name="Path 1475" d="M61.707,165.6l-7.042,3.99,6.021,1.87,7.042-3.99Z" transform="translate(-54.665 -165.602)" fill="#a2c5d2"/>
          </g>
          <g id="Group_505" data-name="Group 505" transform="translate(4.53 1.87)">
            <path id="Path_1476" data-name="Path 1476" d="M66.6,173.749l-7.042,3.99,1.491-6.126,7.042-3.99Z" transform="translate(-59.562 -167.623)" fill="#a2c5d2"/>
          </g>
        </g>
        <g id="Group_507" data-name="Group 507" transform="translate(8.522)">
          <path id="Path_1477" data-name="Path 1477" d="M63.918,168.412c-.625-1.1,6.173-6.138,16.773-12.143s26.057-12.123,26.057-12.123-13.191,10.115-23.791,16.12S64.543,169.516,63.918,168.412Z" transform="translate(-63.878 -144.146)" fill="#a2c5d2"/>
        </g>
        <g id="Group_508" data-name="Group 508" transform="translate(6.021)">
          <path id="Path_1478" data-name="Path 1478" d="M61.174,169.852c3.69-2.3,7.428-4.52,11.174-6.725s7.529-4.343,11.291-6.517c3.8-2.112,7.577-4.257,11.394-6.337s7.64-4.147,11.512-6.127c-3.689,2.3-7.428,4.521-11.173,6.726s-7.528,4.343-11.292,6.516c-3.8,2.11-7.576,4.258-11.394,6.335S65.046,167.87,61.174,169.852Z" transform="translate(-61.174 -144.146)" fill="#c3dbe6"/>
        </g>
      </g>
      <g id="Group_515" data-name="Group 515" transform="translate(20.643 23.024)">
        <g id="Group_512" data-name="Group 512">
          <g id="Group_510" data-name="Group 510" transform="translate(5.949)">
            <path id="Path_1479" data-name="Path 1479" d="M89.583,88.352l-6.169-5.24.316,6.3,6.169,5.24Z" transform="translate(-83.414 -83.112)" fill="#a2c5d2"/>
          </g>
          <g id="Group_511" data-name="Group 511" transform="translate(0 6.297)">
            <path id="Path_1480" data-name="Path 1480" d="M83.151,95.867l-6.169-5.24,6.265-.707,6.169,5.24Z" transform="translate(-76.982 -89.919)" fill="#a2c5d2"/>
          </g>
        </g>
        <g id="Group_513" data-name="Group 513" transform="translate(8.412 8.061)">
          <path id="Path_1481" data-name="Path 1481" d="M86.155,91.953c.821-.968,7.887,3.685,17.173,11.572s20.347,20.3,20.347,20.3-14.036-8.907-23.321-16.794S85.333,92.919,86.155,91.953Z" transform="translate(-86.077 -91.826)" fill="#a2c5d2"/>
        </g>
        <g id="Group_514" data-name="Group 514" transform="translate(6.265 6.296)">
          <path id="Path_1482" data-name="Path 1482" d="M83.755,89.919c3.432,2.672,6.8,5.42,10.158,8.179s6.668,5.575,10,8.36c3.289,2.84,6.6,5.651,9.869,8.518s6.521,5.747,9.713,8.7c-3.433-2.671-6.8-5.419-10.159-8.177s-6.668-5.575-10-8.362c-3.287-2.842-6.6-5.65-9.869-8.519S86.948,92.873,83.755,89.919Z" transform="translate(-83.755 -89.919)" fill="#c3dbe6"/>
        </g>
      </g>
    </g>
    <g id="Group_522" data-name="Group 522" transform="translate(178.865 69.972)">
      <g id="Group_518" data-name="Group 518">
        <rect id="Rectangle_194" data-name="Rectangle 194" width="342.374" height="211.326" rx="18.679" fill="#c3dbe6"/>
        <path id="Path_1483" data-name="Path 1483" d="M208.431,282.14a14.5,14.5,0,0,1-14.5-14.5V92.089A13.874,13.874,0,0,1,207.8,78.214H515.028A13.875,13.875,0,0,1,528.9,92.089V267.638a14.5,14.5,0,0,1-14.5,14.5Z" transform="translate(-190.228 -74.514)" fill="#fff"/>
        <path id="Path_1484" data-name="Path 1484" d="M207.021,78.214H514.969a13.875,13.875,0,0,1,13.875,13.875V103.26h-335.7V92.089A13.875,13.875,0,0,1,207.021,78.214Z" transform="translate(-190.169 -74.514)" fill="#a2c5d2"/>
        <g id="Group_517" data-name="Group 517" transform="translate(18.65 13.022)">
          <circle id="Ellipse_100" data-name="Ellipse 100" cx="3.2" cy="3.2" r="3.2" fill="#dcecf0"/>
          <circle id="Ellipse_101" data-name="Ellipse 101" cx="3.2" cy="3.2" r="3.2" transform="translate(19.067 0)" fill="#dcecf0"/>
          <path id="Path_1485" data-name="Path 1485" d="M257.718,91.493a3.2,3.2,0,1,1-3.2-3.2A3.2,3.2,0,0,1,257.718,91.493Z" transform="translate(-213.183 -88.293)" fill="#dcecf0"/>
        </g>
      </g>
      <g id="Group_521" data-name="Group 521" transform="translate(18.65 34.921)">
        <line id="Line_33" data-name="Line 33" x2="191.007" transform="translate(2.361 139.142)" fill="none" stroke="#c3dbe6" stroke-linecap="round" stroke-linejoin="round" stroke-width="3"/>
        <line id="Line_34" data-name="Line 34" x2="149.205" transform="translate(2.361 150.157)" fill="none" stroke="#c3dbe6" stroke-linecap="round" stroke-linejoin="round" stroke-width="3"/>
        <line id="Line_35" data-name="Line 35" x2="92.905" transform="translate(2.361 161.173)" fill="none" stroke="#c3dbe6" stroke-linecap="round" stroke-linejoin="round" stroke-width="3"/>
        <g id="Group_519" data-name="Group 519" transform="translate(220.225 139.142)">
          <line id="Line_36" data-name="Line 36" x2="17.657" fill="none" stroke="#c3dbe6" stroke-linecap="round" stroke-linejoin="round" stroke-width="3"/>
          <line id="Line_37" data-name="Line 37" x2="17.657" transform="translate(0 11.015)" fill="none" stroke="#c3dbe6" stroke-linecap="round" stroke-linejoin="round" stroke-width="3"/>
          <line id="Line_38" data-name="Line 38" x2="17.657" transform="translate(0 22.031)" fill="none" stroke="#c3dbe6" stroke-linecap="round" stroke-linejoin="round" stroke-width="3"/>
          <line id="Line_39" data-name="Line 39" x2="17.657" transform="translate(32.416)" fill="none" stroke="#c3dbe6" stroke-linecap="round" stroke-linejoin="round" stroke-width="3"/>
          <line id="Line_40" data-name="Line 40" x2="17.657" transform="translate(32.416 11.015)" fill="none" stroke="#c3dbe6" stroke-linecap="round" stroke-linejoin="round" stroke-width="3"/>
          <line id="Line_41" data-name="Line 41" x2="17.657" transform="translate(32.416 22.031)" fill="none" stroke="#c3dbe6" stroke-linecap="round" stroke-linejoin="round" stroke-width="3"/>
          <line id="Line_42" data-name="Line 42" x2="17.657" transform="translate(64.832)" fill="none" stroke="#c3dbe6" stroke-linecap="round" stroke-linejoin="round" stroke-width="3"/>
          <line id="Line_43" data-name="Line 43" x2="17.657" transform="translate(64.832 11.015)" fill="none" stroke="#c3dbe6" stroke-linecap="round" stroke-linejoin="round" stroke-width="3"/>
          <line id="Line_44" data-name="Line 44" x2="17.657" transform="translate(64.832 22.031)" fill="none" stroke="#c3dbe6" stroke-linecap="round" stroke-linejoin="round" stroke-width="3"/>
        </g>
        <g id="Group_520" data-name="Group 520">
          <line id="Line_45" data-name="Line 45" y2="42.403" transform="translate(301.424)" fill="none" stroke="#c3dbe6" stroke-miterlimit="10" stroke-width="0.79"/>
          <line id="Line_46" data-name="Line 46" y2="19.299" transform="translate(301.424 13.156)" fill="none" stroke="#c3dbe6" stroke-miterlimit="10" stroke-width="6.322"/>
          <line id="Line_47" data-name="Line 47" y2="42.403" transform="translate(292.005 7.176)" fill="none" stroke="#c3dbe6" stroke-miterlimit="10" stroke-width="0.79"/>
          <line id="Line_48" data-name="Line 48" y2="12.721" transform="translate(292.005 26.91)" fill="none" stroke="#c3dbe6" stroke-miterlimit="10" stroke-width="6.322"/>
          <line id="Line_49" data-name="Line 49" y2="42.403" transform="translate(282.586 10.901)" fill="none" stroke="#c3dbe6" stroke-miterlimit="10" stroke-width="0.79"/>
          <line id="Line_50" data-name="Line 50" y2="19.897" transform="translate(282.586 32.51)" fill="none" stroke="#c3dbe6" stroke-miterlimit="10" stroke-width="6.322"/>
          <line id="Line_51" data-name="Line 51" y2="42.403" transform="translate(273.166 8.807)" fill="none" stroke="#c3dbe6" stroke-miterlimit="10" stroke-width="0.79"/>
          <line id="Line_52" data-name="Line 52" y2="26.257" transform="translate(273.166 15.004)" fill="none" stroke="#c3dbe6" stroke-miterlimit="10" stroke-width="6.322"/>
          <line id="Line_53" data-name="Line 53" y2="31.802" transform="translate(263.746 23.316)" fill="none" stroke="#c3dbe6" stroke-miterlimit="10" stroke-width="0.79"/>
          <line id="Line_54" data-name="Line 54" y2="14.026" transform="translate(263.746 31.525)" fill="none" stroke="#c3dbe6" stroke-miterlimit="10" stroke-width="6.322"/>
          <line id="Line_55" data-name="Line 55" y2="37.837" transform="translate(254.327 27.883)" fill="none" stroke="#c3dbe6" stroke-miterlimit="10" stroke-width="0.79"/>
          <line id="Line_56" data-name="Line 56" y2="22.506" transform="translate(254.327 37.831)" fill="none" stroke="#c3dbe6" stroke-miterlimit="10" stroke-width="6.322"/>
          <line id="Line_57" data-name="Line 57" y2="32.944" transform="translate(244.907 21.196)" fill="none" stroke="#c3dbe6" stroke-miterlimit="10" stroke-width="0.79"/>
          <line id="Line_58" data-name="Line 58" y2="18.701" transform="translate(244.907 28.916)" fill="none" stroke="#c3dbe6" stroke-miterlimit="10" stroke-width="6.322"/>
          <line id="Line_59" data-name="Line 59" y2="39.468" transform="translate(235.488 7.986)" fill="none" stroke="#c3dbe6" stroke-miterlimit="10" stroke-width="0.79"/>
          <line id="Line_60" data-name="Line 60" y2="24.79" transform="translate(235.488 15.651)" fill="none" stroke="#c3dbe6" stroke-miterlimit="10" stroke-width="6.322"/>
          <line id="Line_61" data-name="Line 61" y2="31.313" transform="translate(226.068 26.652)" fill="none" stroke="#c3dbe6" stroke-miterlimit="10" stroke-width="0.79"/>
          <line id="Line_62" data-name="Line 62" y2="15.167" transform="translate(226.068 34.154)" fill="none" stroke="#c3dbe6" stroke-miterlimit="10" stroke-width="6.322"/>
          <line id="Line_63" data-name="Line 63" y2="31.476" transform="translate(216.649 39.467)" fill="none" stroke="#c3dbe6" stroke-miterlimit="10" stroke-width="0.79"/>
          <line id="Line_64" data-name="Line 64" y2="11.579" transform="translate(216.649 49.416)" fill="none" stroke="#c3dbe6" stroke-miterlimit="10" stroke-width="6.322"/>
          <line id="Line_65" data-name="Line 65" y2="32.129" transform="translate(207.229 31.313)" fill="none" stroke="#c3dbe6" stroke-miterlimit="10" stroke-width="0.79"/>
          <line id="Line_66" data-name="Line 66" y2="12.123" transform="translate(207.229 41.261)" fill="none" stroke="#c3dbe6" stroke-miterlimit="10" stroke-width="6.322"/>
          <line id="Line_67" data-name="Line 67" y2="38.978" transform="translate(197.81 39.467)" fill="none" stroke="#c3dbe6" stroke-miterlimit="10" stroke-width="0.79"/>
          <line id="Line_68" data-name="Line 68" y2="22.506" transform="translate(197.81 49.416)" fill="none" stroke="#c3dbe6" stroke-miterlimit="10" stroke-width="6.322"/>
          <line id="Line_69" data-name="Line 69" y2="26.991" transform="translate(188.39 39.467)" fill="none" stroke="#c3dbe6" stroke-miterlimit="10" stroke-width="0.79"/>
          <line id="Line_70" data-name="Line 70" y2="10.981" transform="translate(188.39 49.416)" fill="none" stroke="#c3dbe6" stroke-miterlimit="10" stroke-width="6.322"/>
          <line id="Line_71" data-name="Line 71" y2="28.214" transform="translate(178.971 35.227)" fill="none" stroke="#c3dbe6" stroke-miterlimit="10" stroke-width="0.79"/>
          <line id="Line_72" data-name="Line 72" y2="8.209" transform="translate(178.971 45.176)" fill="none" stroke="#c3dbe6" stroke-miterlimit="10" stroke-width="6.322"/>
          <line id="Line_73" data-name="Line 73" y2="53.982" transform="translate(169.551 39.467)" fill="none" stroke="#c3dbe6" stroke-miterlimit="10" stroke-width="0.79"/>
          <line id="Line_74" data-name="Line 74" y2="38.163" transform="translate(169.551 49.416)" fill="none" stroke="#c3dbe6" stroke-miterlimit="10" stroke-width="6.322"/>
          <line id="Line_75" data-name="Line 75" y2="42.403" transform="translate(160.132 54.635)" fill="none" stroke="#c3dbe6" stroke-miterlimit="10" stroke-width="0.79"/>
          <line id="Line_76" data-name="Line 76" y2="22.506" transform="translate(160.132 64.583)" fill="none" stroke="#c3dbe6" stroke-miterlimit="10" stroke-width="6.322"/>
          <line id="Line_77" data-name="Line 77" y2="48.274" transform="translate(150.712 56.429)" fill="none" stroke="#c3dbe6" stroke-miterlimit="10" stroke-width="0.79"/>
          <line id="Line_78" data-name="Line 78" y2="29.193" transform="translate(150.712 65.562)" fill="none" stroke="#c3dbe6" stroke-miterlimit="10" stroke-width="6.322"/>
          <line id="Line_79" data-name="Line 79" y2="39.141" transform="translate(141.293 84.155)" fill="none" stroke="#c3dbe6" stroke-miterlimit="10" stroke-width="0.79"/>
          <line id="Line_80" data-name="Line 80" y2="22.506" transform="translate(141.293 90.842)" fill="none" stroke="#c3dbe6" stroke-miterlimit="10" stroke-width="6.322"/>
          <line id="Line_81" data-name="Line 81" y2="42.403" transform="translate(131.873 46.44)" fill="none" stroke="#c3dbe6" stroke-miterlimit="10" stroke-width="0.79"/>
          <line id="Line_82" data-name="Line 82" y2="27.725" transform="translate(131.873 56.388)" fill="none" stroke="#c3dbe6" stroke-miterlimit="10" stroke-width="6.322"/>
          <line id="Line_83" data-name="Line 83" y2="42.403" transform="translate(122.454 49.905)" fill="none" stroke="#c3dbe6" stroke-miterlimit="10" stroke-width="0.79"/>
          <line id="Line_84" data-name="Line 84" y2="16.472" transform="translate(122.454 65.888)" fill="none" stroke="#c3dbe6" stroke-miterlimit="10" stroke-width="6.322"/>
          <line id="Line_85" data-name="Line 85" y2="42.403" transform="translate(113.034 65.888)" fill="none" stroke="#c3dbe6" stroke-miterlimit="10" stroke-width="0.79"/>
          <line id="Line_86" data-name="Line 86" y2="14.352" transform="translate(113.034 83.991)" fill="none" stroke="#c3dbe6" stroke-miterlimit="10" stroke-width="6.322"/>
          <line id="Line_87" data-name="Line 87" y2="42.403" transform="translate(103.615 75.836)" fill="none" stroke="#c3dbe6" stroke-miterlimit="10" stroke-width="0.79"/>
          <line id="Line_88" data-name="Line 88" y2="11.253" transform="translate(103.615 97.038)" fill="none" stroke="#c3dbe6" stroke-miterlimit="10" stroke-width="6.322"/>
          <line id="Line_89" data-name="Line 89" y2="42.403" transform="translate(94.195 69.965)" fill="none" stroke="#c3dbe6" stroke-miterlimit="10" stroke-width="0.79"/>
          <line id="Line_90" data-name="Line 90" y2="13.7" transform="translate(94.195 88.72)" fill="none" stroke="#c3dbe6" stroke-miterlimit="10" stroke-width="6.322"/>
          <line id="Line_91" data-name="Line 91" y2="42.403" transform="translate(84.776 65.888)" fill="none" stroke="#c3dbe6" stroke-miterlimit="10" stroke-width="0.79"/>
          <line id="Line_92" data-name="Line 92" y2="17.124" transform="translate(84.776 81.218)" fill="none" stroke="#c3dbe6" stroke-miterlimit="10" stroke-width="6.322"/>
          <line id="Line_93" data-name="Line 93" y2="42.403" transform="translate(75.356 76.338)" fill="none" stroke="#c3dbe6" stroke-miterlimit="10" stroke-width="0.79"/>
          <line id="Line_94" data-name="Line 94" y2="26.42" transform="translate(75.356 82.372)" fill="none" stroke="#c3dbe6" stroke-miterlimit="10" stroke-width="6.322"/>
          <line id="Line_95" data-name="Line 95" y2="42.403" transform="translate(65.937 58.7)" fill="none" stroke="#c3dbe6" stroke-miterlimit="10" stroke-width="0.79"/>
          <line id="Line_96" data-name="Line 96" y2="25.605" transform="translate(65.937 68.648)" fill="none" stroke="#c3dbe6" stroke-miterlimit="10" stroke-width="6.322"/>
          <line id="Line_97" data-name="Line 97" y2="42.403" transform="translate(56.517 41.256)" fill="none" stroke="#c3dbe6" stroke-miterlimit="10" stroke-width="0.79"/>
          <line id="Line_98" data-name="Line 98" y2="25.931" transform="translate(56.517 51.204)" fill="none" stroke="#c3dbe6" stroke-miterlimit="10" stroke-width="6.322"/>
          <line id="Line_99" data-name="Line 99" y2="42.403" transform="translate(47.098 48.432)" fill="none" stroke="#c3dbe6" stroke-miterlimit="10" stroke-width="0.79"/>
          <line id="Line_100" data-name="Line 100" y2="25.279" transform="translate(47.098 55.608)" fill="none" stroke="#c3dbe6" stroke-miterlimit="10" stroke-width="6.322"/>
          <line id="Line_101" data-name="Line 101" y2="42.403" transform="translate(37.678 39.631)" fill="none" stroke="#c3dbe6" stroke-miterlimit="10" stroke-width="0.79"/>
          <line id="Line_102" data-name="Line 102" y2="7.013" transform="translate(37.678 49.579)" fill="none" stroke="#c3dbe6" stroke-miterlimit="10" stroke-width="6.322"/>
          <line id="Line_103" data-name="Line 103" y2="42.403" transform="translate(28.259 30.008)" fill="none" stroke="#c3dbe6" stroke-miterlimit="10" stroke-width="0.79"/>
          <line id="Line_104" data-name="Line 104" y2="11.253" transform="translate(28.259 39.957)" fill="none" stroke="#c3dbe6" stroke-miterlimit="10" stroke-width="6.322"/>
          <line id="Line_105" data-name="Line 105" y2="50.313" transform="translate(18.839 50.476)" fill="none" stroke="#c3dbe6" stroke-miterlimit="10" stroke-width="0.79"/>
          <line id="Line_106" data-name="Line 106" y2="35.146" transform="translate(18.839 55.695)" fill="none" stroke="#c3dbe6" stroke-miterlimit="10" stroke-width="6.322"/>
          <line id="Line_107" data-name="Line 107" y2="42.403" transform="translate(9.42 79.261)" fill="none" stroke="#c3dbe6" stroke-miterlimit="10" stroke-width="0.79"/>
          <line id="Line_108" data-name="Line 108" y2="19.081" transform="translate(9.42 68.503)" fill="none" stroke="#c3dbe6" stroke-miterlimit="10" stroke-width="6.322"/>
          <line id="Line_109" data-name="Line 109" y2="42.403" transform="translate(0 76.331)" fill="none" stroke="#c3dbe6" stroke-miterlimit="10" stroke-width="0.79"/>
          <line id="Line_110" data-name="Line 110" y2="24.79" transform="translate(0 83.996)" fill="none" stroke="#c3dbe6" stroke-miterlimit="10" stroke-width="6.322"/>
        </g>
      </g>
    </g>
    <g id="Group_523" data-name="Group 523" transform="translate(564.896 201.703)">
      <path id="Path_1486" data-name="Path 1486" d="M642.744,219.756,630.229,239H607.271a23.737,23.737,0,0,1,35.473-19.239Z" transform="translate(-607.271 -216.63)" fill="#dcecf0"/>
      <path id="Path_1487" data-name="Path 1487" d="M656.809,240.75a23.551,23.551,0,0,1-3.432,12.293L634.961,240.38l12.182-18.74A23.69,23.69,0,0,1,656.809,240.75Z" transform="translate(-609.348 -217.006)" fill="#c3dbe6"/>
      <path id="Path_1488" data-name="Path 1488" d="M649.718,257a23.745,23.745,0,0,1-42.447-13.19h23.282Z" transform="translate(-607.271 -218.669)" fill="#a2c5d2"/>
    </g>
    <g id="Group_531" data-name="Group 531" transform="translate(549.332 313.829)">
      <g id="Group_525" data-name="Group 525" transform="translate(36.304)">
        <path id="Path_1489" data-name="Path 1489" d="M647.444,423.055s17.158-4.828,16.017-15.689-14.2-13.042-6.627-22.662,9.668-14.6,4.376-19.674,4.383-8.56,3.973-17.953-9.793-11.308-15.674-7.132-1.725,11.481-4.075,17.222-10.844,7.654-12.29,14.786,6.23,13.067,6.326,18.266-9.785,10.959-9.778,18.613S644.2,422.959,647.444,423.055Z" transform="translate(-629.693 -337.851)" fill="#ff9014"/>
        <g id="Group_524" data-name="Group 524" transform="translate(15.892 10.618)">
          <path id="Path_1490" data-name="Path 1490" d="M650.3,427.091a163.524,163.524,0,0,1-1.829-19.667,174.229,174.229,0,0,1,.433-19.8,134.136,134.136,0,0,1,3.077-19.578,100.115,100.115,0,0,1,6.578-18.713,100.357,100.357,0,0,0-7.094,18.581,134.9,134.9,0,0,0-3.621,19.608,175.675,175.675,0,0,0-.969,19.942,165.066,165.066,0,0,0,1.326,19.977Z" transform="translate(-646.874 -349.33)" fill="#ff7800"/>
        </g>
      </g>
      <g id="Group_527" data-name="Group 527" transform="translate(42.326 39.103)">
        <path id="Path_1491" data-name="Path 1491" d="M644.942,441.711s-11.283-7.755-8.207-15.972,5.784-6.427,5.58-17.8,3.9-17.953,16.276-19.187,17.424-5.711,23.7-7.68,10.627-.865,12.288,3.21.018,10.408-8.018,11.546-12.293,3.54-13.083,11.88-4.67,10.436-12.026,11.841S662.9,439.434,644.942,441.711Z" transform="translate(-636.204 -380.126)" fill="#ff7800"/>
        <g id="Group_526" data-name="Group 526" transform="translate(8.431 7.358)">
          <path id="Path_1492" data-name="Path 1492" d="M645.319,440.659a63.173,63.173,0,0,1,10.532-31.88,55.053,55.053,0,0,1,25.976-20.7,54.579,54.579,0,0,0-25.18,21.224,61.743,61.743,0,0,0-9.422,31.43Z" transform="translate(-645.319 -388.08)" fill="#ff9014"/>
        </g>
      </g>
      <g id="Group_529" data-name="Group 529" transform="translate(0 31.761)">
        <path id="Path_1493" data-name="Path 1493" d="M636.757,429.142s-13.151-1.791-15.344-9.467,3.056-10.495-4.37-13.3-12.865-1.821-14.348-9.206-3.808-12.5-9.639-15.606-.936-11.474,5.312-8.877,8.268,7.534,17.108,6.78c9.971-.85,15.745,1.655,14.776,9.441-.754,6.063.731,6.881,7.245,9.573,11.1,4.59,8.969,16.034,5.415,23.642S636.757,429.142,636.757,429.142Z" transform="translate(-590.444 -372.188)" fill="#ff9407"/>
        <g id="Group_528" data-name="Group 528" transform="translate(7.663 6.052)">
          <path id="Path_1494" data-name="Path 1494" d="M634.834,427.5a34.036,34.036,0,0,0-2.718-15.393,53.951,53.951,0,0,0-8.3-13.582,73.58,73.58,0,0,0-11.509-11.161,83.047,83.047,0,0,0-13.581-8.634,83.327,83.327,0,0,1,13.839,8.293,74.27,74.27,0,0,1,11.905,10.95A55,55,0,0,1,633.3,411.6a35.508,35.508,0,0,1,3.245,16.019Z" transform="translate(-598.729 -378.731)" fill="#ff7800"/>
        </g>
      </g>
      <g id="Group_530" data-name="Group 530" transform="translate(34.139 84.314)">
        <path id="Path_1495" data-name="Path 1495" d="M657.969,429H629.407s-2.341,12.409,4.214,24.115h20.134C660.31,441.413,657.969,429,657.969,429Z" transform="translate(-627.476 -429.004)" fill="#304a5f"/>
        <path id="Path_1496" data-name="Path 1496" d="M659.777,434.085c-.117-3.158-.4-5.081-.4-5.081H627.753s-.285,1.923-.4,5.081Z" transform="translate(-627.352 -429.004)" fill="#2c4c6a"/>
      </g>
    </g>
    <g id="Group_539" data-name="Group 539" transform="translate(42.464 315.011)">
      <g id="Group_533" data-name="Group 533" transform="translate(0 30.189)">
        <path id="Path_1497" data-name="Path 1497" d="M96.975,430.7c.049-4.544,8.813-17.319,7.473-22.414C101.76,398.073,92.055,401.111,93,389.673c.544-6.574-3.614-12.67-16.133-11.793-12.653.886-15.413-3.988-21.875-5.517s-10.76-.1-12.138,4.119.734,10.479,8.907,11.044,11.168,2.017,12.566,10.357,8.438,3.443,14.568,7.862c4.972,3.584-2.759,6.97,2.2,13.412C84.109,423.079,94.553,423.955,96.975,430.7Z" transform="translate(-42.464 -371.766)" fill="#ff7800"/>
        <g id="Group_532" data-name="Group 532" transform="translate(14.149 6.964)">
          <path id="Path_1498" data-name="Path 1498" d="M96.442,429.793a62.351,62.351,0,0,0-11.782-30.967,55.089,55.089,0,0,0-26.9-19.531,55.551,55.551,0,0,1,27.628,18.972,63.725,63.725,0,0,1,12.88,31.323Z" transform="translate(-57.761 -379.295)" fill="#ff9014"/>
        </g>
      </g>
      <g id="Group_535" data-name="Group 535" transform="translate(36.969)">
        <path id="Path_1499" data-name="Path 1499" d="M111.145,426.373s-18.437-2.684-18.722-14.095,10.041-15.128.886-24.074-9.077-14.129-4.278-20.11-5.7-8.279-6.546-18.07,8.621-13.043,15.281-9.512,3.34,11.667,6.553,17.3,12.273,6.466,14.737,13.663-.36,13.3.244,18.7,7.294,11.127,8.322,19.061S114.494,425.833,111.145,426.373Z" transform="translate(-82.432 -339.129)" fill="#ff9014"/>
        <g id="Group_534" data-name="Group 534" transform="translate(8.438 11.268)">
          <path id="Path_1500" data-name="Path 1500" d="M110.824,430.795a171.108,171.108,0,0,0-.813-20.653,182.249,182.249,0,0,0-3.176-20.472,140.261,140.261,0,0,0-5.887-19.871,104.713,104.713,0,0,0-9.394-18.488,104.9,104.9,0,0,1,9.82,18.317,141.1,141.1,0,0,1,6.356,19.836,183.568,183.568,0,0,1,3.651,20.531,172.257,172.257,0,0,1,1.279,20.863Z" transform="translate(-91.554 -351.31)" fill="#ff7800"/>
        </g>
      </g>
      <g id="Group_537" data-name="Group 537" transform="translate(60.403 29.256)">
        <path id="Path_1501" data-name="Path 1501" d="M136.4,419.348c1.843-8.375-4.772-6.129,3-9.632s10.005-3.713,11.107-11.729,3.254-13.655,9.3-17.369.243-12.363-6.283-9.165-8.365,8.624-17.893,8.4c-10.745-.252-16.77,2.816-15.217,11.1,1.21,6.45-.932,11.96-7.738,15.278-11.6,5.655.522,16.169,4.075,27.68C122.9,418.1,134.556,427.723,136.4,419.348Z" transform="translate(-107.767 -370.757)" fill="#ff7800"/>
        <g id="Group_536" data-name="Group 536" transform="translate(8.908 6.638)">
          <path id="Path_1502" data-name="Path 1502" d="M117.6,432.854a38.128,38.128,0,0,1,2.418-17.389,59.059,59.059,0,0,1,8.556-15.2,79.7,79.7,0,0,1,12.038-12.527,89.542,89.542,0,0,1,14.288-9.808,89.226,89.226,0,0,0-13.987,10.156,79.04,79.04,0,0,0-11.6,12.727,57.951,57.951,0,0,0-8,15.11,36.553,36.553,0,0,0-1.894,16.682Z" transform="translate(-117.398 -377.934)" fill="#ff9014"/>
        </g>
      </g>
      <g id="Group_538" data-name="Group 538" transform="translate(47.485 83.133)">
        <path id="Path_1503" data-name="Path 1503" d="M95.856,429h28.562s2.341,12.409-4.214,24.115H100.07C93.515,441.413,95.856,429,95.856,429Z" transform="translate(-93.925 -429.004)" fill="#304a5f"/>
        <path id="Path_1504" data-name="Path 1504" d="M93.8,434.085c.117-3.158.4-5.081.4-5.081h31.624s.285,1.923.4,5.081Z" transform="translate(-93.801 -429.004)" fill="#2c4c6a"/>
      </g>
    </g>
    <g id="Group_540" data-name="Group 540" transform="translate(488.861 169.405)">
      <rect id="Rectangle_195" data-name="Rectangle 195" width="59.985" height="43.094" rx="3.403" fill="#fff" stroke="#c3dbe6" stroke-miterlimit="10" stroke-width="2.731"/>
      <path id="Path_1505" data-name="Path 1505" d="M529.788,220.265c4.271,0,4.271-5.84,8.541-5.84s4.271-10.3,8.542-10.3,3.088,6.713,7.359,6.713,5.454-17.586,9.725-17.586,4.272,7.719,8.543,7.719,4.272-7.719,8.543-7.719" transform="translate(-525.422 -182.578)" fill="none" stroke="#c3dbe6" stroke-linecap="round" stroke-linejoin="round" stroke-width="2"/>
    </g>
    <g id="Group_541" data-name="Group 541" transform="translate(535.961 100.003)">
      <path id="Path_1506" data-name="Path 1506" d="M614.664,138.474h-3.63a1.505,1.505,0,0,1-1.437-1.03,14.113,14.113,0,0,0-.858-2.074,1.5,1.5,0,0,1,.286-1.745l2.567-2.567a1.523,1.523,0,0,0,0-2.154l-2.583-2.583a1.525,1.525,0,0,0-2.155,0l-2.567,2.567a1.5,1.5,0,0,1-1.745.287,14.191,14.191,0,0,0-2.075-.859,1.5,1.5,0,0,1-1.03-1.436v-3.63a1.523,1.523,0,0,0-1.523-1.523h-3.653a1.523,1.523,0,0,0-1.523,1.523v3.63a1.5,1.5,0,0,1-1.029,1.437,14.081,14.081,0,0,0-2.075.858,1.5,1.5,0,0,1-1.745-.286l-2.567-2.567a1.522,1.522,0,0,0-2.154,0l-2.583,2.582a1.525,1.525,0,0,0,0,2.155l2.567,2.567a1.505,1.505,0,0,1,.287,1.745,14.117,14.117,0,0,0-.859,2.074,1.5,1.5,0,0,1-1.437,1.03h-3.63A1.523,1.523,0,0,0,575.989,140v3.653a1.524,1.524,0,0,0,1.523,1.523h3.63a1.5,1.5,0,0,1,1.437,1.03,14.117,14.117,0,0,0,.859,2.074,1.505,1.505,0,0,1-.287,1.745l-2.567,2.567a1.525,1.525,0,0,0,0,2.155l2.583,2.583a1.523,1.523,0,0,0,2.154,0l2.567-2.568a1.505,1.505,0,0,1,1.745-.286,14.083,14.083,0,0,0,2.075.858,1.5,1.5,0,0,1,1.029,1.437v3.63a1.523,1.523,0,0,0,1.523,1.523h3.653a1.523,1.523,0,0,0,1.523-1.523v-3.63a1.5,1.5,0,0,1,1.03-1.436,14.135,14.135,0,0,0,2.074-.859,1.5,1.5,0,0,1,1.746.287l2.567,2.567a1.525,1.525,0,0,0,2.155,0l2.583-2.583a1.523,1.523,0,0,0,0-2.154l-2.567-2.567a1.5,1.5,0,0,1-.286-1.745,14.113,14.113,0,0,0,.858-2.074,1.5,1.5,0,0,1,1.437-1.03h3.629a1.524,1.524,0,0,0,1.523-1.523V140A1.523,1.523,0,0,0,614.664,138.474Zm-18.575,10.934a7.584,7.584,0,1,1,7.584-7.584A7.58,7.58,0,0,1,596.089,149.409Z" transform="translate(-575.989 -107.81)" fill="#c3dbe6"/>
      <path id="Path_1507" data-name="Path 1507" d="M643.8,156.818h-2.285a.947.947,0,0,1-.9-.648,8.8,8.8,0,0,0-.541-1.306.949.949,0,0,1,.18-1.1l1.617-1.616a.96.96,0,0,0,0-1.357l-1.626-1.626a.96.96,0,0,0-1.357,0l-1.616,1.616a.946.946,0,0,1-1.1.18,8.909,8.909,0,0,0-1.307-.541.947.947,0,0,1-.648-.9v-2.285a.96.96,0,0,0-.959-.96h-2.3a.96.96,0,0,0-.959.96v2.285a.947.947,0,0,1-.648.9,9,9,0,0,0-1.306.541.946.946,0,0,1-1.1-.18l-1.616-1.616a.96.96,0,0,0-1.357,0l-1.626,1.626a.959.959,0,0,0,0,1.356l1.617,1.617a.947.947,0,0,1,.179,1.1,8.935,8.935,0,0,0-.54,1.305.947.947,0,0,1-.9.649h-2.286a.959.959,0,0,0-.959.959v2.3a.959.959,0,0,0,.959.959h2.286a.947.947,0,0,1,.9.648,8.9,8.9,0,0,0,.54,1.306.947.947,0,0,1-.179,1.1l-1.617,1.617a.959.959,0,0,0,0,1.356l1.626,1.626a.96.96,0,0,0,1.357,0l1.616-1.616a.946.946,0,0,1,1.1-.18,9,9,0,0,0,1.306.541.947.947,0,0,1,.648.9v2.285a.959.959,0,0,0,.959.959h2.3a.959.959,0,0,0,.959-.959v-2.285a.947.947,0,0,1,.648-.9,8.952,8.952,0,0,0,1.306-.541.948.948,0,0,1,1.1.18l1.616,1.616a.959.959,0,0,0,1.357,0l1.626-1.626a.96.96,0,0,0,0-1.357l-1.617-1.616a.949.949,0,0,1-.18-1.1,8.8,8.8,0,0,0,.541-1.306.947.947,0,0,1,.9-.648H643.8a.96.96,0,0,0,.96-.959v-2.3A.96.96,0,0,0,643.8,156.818ZM632.1,163.7a4.775,4.775,0,1,1,4.776-4.775A4.772,4.772,0,0,1,632.1,163.7Z" transform="translate(-579.25 -109.651)" fill="#c3dbe6"/>
      <path id="Path_1508" data-name="Path 1508" d="M620.606,113.195h-1.411a.586.586,0,0,1-.559-.4,5.561,5.561,0,0,0-.334-.807.584.584,0,0,1,.112-.679l1-1a.593.593,0,0,0,0-.838l-1-1a.593.593,0,0,0-.838,0l-1,1a.586.586,0,0,1-.679.111,5.559,5.559,0,0,0-.807-.334.586.586,0,0,1-.4-.559v-1.412a.593.593,0,0,0-.593-.593h-1.42a.593.593,0,0,0-.593.593v1.412a.586.586,0,0,1-.4.559,5.559,5.559,0,0,0-.807.334.586.586,0,0,1-.679-.111l-1-1a.591.591,0,0,0-.838,0l-1,1a.593.593,0,0,0,0,.838l1,1a.586.586,0,0,1,.111.679,5.561,5.561,0,0,0-.334.807.586.586,0,0,1-.559.4h-1.411a.593.593,0,0,0-.593.593v1.42a.593.593,0,0,0,.593.593h1.411a.586.586,0,0,1,.559.4,5.561,5.561,0,0,0,.334.807.586.586,0,0,1-.111.679l-1,1a.593.593,0,0,0,0,.838l1,1a.591.591,0,0,0,.838,0l1-1a.586.586,0,0,1,.679-.111,5.559,5.559,0,0,0,.807.334.585.585,0,0,1,.4.559v1.412a.593.593,0,0,0,.593.593h1.42a.593.593,0,0,0,.593-.593V120.31a.586.586,0,0,1,.4-.559,5.559,5.559,0,0,0,.807-.334.586.586,0,0,1,.679.111l1,1a.593.593,0,0,0,.838,0l1-1a.593.593,0,0,0,0-.838l-1-1a.584.584,0,0,1-.112-.679,5.56,5.56,0,0,0,.334-.807.586.586,0,0,1,.559-.4h1.411a.593.593,0,0,0,.593-.593v-1.42A.593.593,0,0,0,620.606,113.195Zm-7.224,4.252a2.949,2.949,0,1,1,2.95-2.95A2.947,2.947,0,0,1,613.382,117.447Z" transform="translate(-578.208 -106.681)" fill="#c3dbe6"/>
    </g>
    <g id="Group_544" data-name="Group 544" transform="translate(337.698 327.474)">
      <g id="Group_542" data-name="Group 542">
        <path id="Path_1509" data-name="Path 1509" d="M392.655,379.2a16.515,16.515,0,0,0-4.129-8.536,41.216,41.216,0,0,0-7.279-6.255c-3.324-2.386-6.911-4.716-10.976-5.181a9.176,9.176,0,0,0-5.647.994,5.8,5.8,0,0,0-2.979,4.719c-.041,2.379,1.667,4.431,3.528,5.914s4,2.681,5.46,4.56c1.884,2.43,2.369,5.661,3.9,8.326a11.975,11.975,0,0,0,6.716,5.388c2.5.785,6.853,1.11,8.773-1.068A11.463,11.463,0,0,0,392.655,379.2Z" transform="translate(-361.644 -353.093)" fill="#ff9407"/>
        <path id="Path_1510" data-name="Path 1510" d="M395.816,378.931a12.111,12.111,0,0,1-.746-7.124c.637-2.726,2.473-5.014,3.426-7.647.967-2.673,1.024-5.7,2.546-8.1a7.659,7.659,0,0,1,8.6-3.113,7.4,7.4,0,0,1,4.891,7.668c-.282,2.267-1.637,4.253-2.247,6.454-.873,3.152-.18,6.592-1.144,9.718a9.638,9.638,0,0,1-5.309,5.923c-1.185.512-2.451.816-3.658,1.271-.8.3-1.72.85-2.608.606C397.736,384.083,396.439,380.509,395.816,378.931Z" transform="translate(-364.133 -352.602)" fill="#ff9014"/>
        <path id="Path_1511" data-name="Path 1511" d="M402.386,402.47a7.7,7.7,0,0,1,6.245-3.922c1.827-.092,3.619.478,5.443.633,2.025.171,4.095-.169,6.077.277s3.951,2.073,3.794,4.1a3.982,3.982,0,0,1-2.741,3.182,10.889,10.889,0,0,1-4.389.373,13.854,13.854,0,0,0-4.413.178c-1.707.459-3.143,1.588-4.716,2.4-1.664.855-4.346,1.586-5.476-.313A7.5,7.5,0,0,1,402.386,402.47Z" transform="translate(-364.63 -356.048)" fill="#ff7800"/>
        <path id="Path_1512" data-name="Path 1512" d="M396.744,428.225s1.95-24.331,14.673-25.671" transform="translate(-364.278 -356.35)" fill="none" stroke="#ff7800" stroke-miterlimit="10" stroke-width="0.724"/>
        <path id="Path_1513" data-name="Path 1513" d="M396.908,431.053s-2.009-37.948,8.036-65.181" transform="translate(-364.278 -353.598)" fill="none" stroke="#ff7800" stroke-miterlimit="10" stroke-width="0.724"/>
        <path id="Path_1514" data-name="Path 1514" d="M395.445,408.66s.408-26.107-21.691-40.616" transform="translate(-362.553 -353.761)" fill="none" stroke="#ff7800" stroke-miterlimit="10" stroke-width="0.724"/>
      </g>
      <g id="Group_543" data-name="Group 543" transform="translate(16.43 70.952)">
        <path id="Path_1515" data-name="Path 1515" d="M409.668,429.309H381.438a38.859,38.859,0,0,0,4.165,23.833h19.9A38.867,38.867,0,0,0,409.668,429.309Z" transform="translate(-379.529 -429.309)" fill="#304a5f"/>
        <path id="Path_1516" data-name="Path 1516" d="M411.454,434.33c-.115-3.121-.4-5.021-.4-5.021H379.8s-.281,1.9-.4,5.021Z" transform="translate(-379.407 -429.309)" fill="#2c4c6a"/>
      </g>
    </g>
    <g id="Group_545" data-name="Group 545" transform="translate(417.5 17.667)">
      <rect id="Rectangle_196" data-name="Rectangle 196" width="17.351" height="26.721" transform="translate(7.144 16.834)" fill="#c3dbe6"/>
      <path id="Path_1517" data-name="Path 1517" d="M463.739,17.667l-15.82,19.681h31.639Z" transform="translate(-447.919 -17.667)" fill="#c3dbe6"/>
    </g>
    <g id="Group_546" data-name="Group 546" transform="translate(279.744 108.017)">
      <rect id="Rectangle_197" data-name="Rectangle 197" width="17.351" height="26.721" transform="translate(7.144)" fill="#c3dbe6"/>
      <path id="Path_1518" data-name="Path 1518" d="M314.809,160.837l15.82-19.681H298.989Z" transform="translate(-298.989 -117.282)" fill="#c3dbe6"/>
    </g>
    <g id="Group_547" data-name="Group 547" transform="translate(527.616 37.978)">
      <circle id="Ellipse_102" data-name="Ellipse 102" cx="16.623" cy="16.623" r="16.623" transform="matrix(0.16, -0.987, 0.987, 0.16, 0, 32.816)" fill="none" stroke="#a2c5d2" stroke-miterlimit="10" stroke-width="8.583"/>
      <path id="Path_1519" data-name="Path 1519" d="M577.918,74.638a16.616,16.616,0,0,1-8.305-14.4" transform="translate(-567.165 -41.173)" fill="none" stroke="#c3dbe6" stroke-miterlimit="10" stroke-width="8.583"/>
      <path id="Path_1520" data-name="Path 1520" d="M569.613,58.895a16.623,16.623,0,0,1,16.623-16.622" transform="translate(-567.165 -39.825)" fill="none" stroke="#dcecf0" stroke-miterlimit="10" stroke-width="8.583"/>
    </g>
    <g id="Group_549" data-name="Group 549" transform="translate(173.872 44.161)">
      <rect id="Rectangle_198" data-name="Rectangle 198" width="15.029" height="15.029" rx="2.296" transform="translate(0 0)" fill="#c3dbe6"/>
      <g id="Group_548" data-name="Group 548" transform="translate(3.924 4.833)">
        <path id="Path_1521" data-name="Path 1521" d="M188.773,55l1.71,1.9,5.471-5.364" transform="translate(-188.773 -51.534)" fill="none" stroke="#fff" stroke-linecap="round" stroke-linejoin="round" stroke-width="2.218"/>
      </g>
    </g>
    <g id="Group_551" data-name="Group 551" transform="translate(571.388 270.219)">
      <rect id="Rectangle_199" data-name="Rectangle 199" width="15.029" height="15.029" rx="2.296" fill="#c3dbe6"/>
      <g id="Group_550" data-name="Group 550" transform="translate(3.924 4.833)">
        <path id="Path_1522" data-name="Path 1522" d="M618.531,299.39l1.71,1.9,5.471-5.364" transform="translate(-618.531 -295.928)" fill="none" stroke="#fff" stroke-linecap="round" stroke-linejoin="round" stroke-width="2.218"/>
      </g>
    </g>
    <g id="Group_552" data-name="Group 552" transform="translate(100.53 181.777)">
      <rect id="Rectangle_200" data-name="Rectangle 200" width="22.399" height="22.399" rx="3.422" fill="#c3dbe6"/>
      <path id="Path_1523" data-name="Path 1523" d="M111.562,208.034l2.548,2.835,8.154-7.994" transform="translate(-105.714 -195.672)" fill="none" stroke="#fff" stroke-linecap="round" stroke-linejoin="round" stroke-width="3.306"/>
    </g>
    <g id="Group_553" data-name="Group 553" transform="translate(263.944 42.864)">
      <rect id="Rectangle_201" data-name="Rectangle 201" width="5.971" height="6.344" transform="translate(0 14.871)" fill="#c3dbe6"/>
      <rect id="Rectangle_202" data-name="Rectangle 202" width="5.971" height="10.175" transform="translate(8.55 11.04)" fill="#c3dbe6"/>
      <rect id="Rectangle_203" data-name="Rectangle 203" width="5.971" height="15.039" transform="translate(17.099 6.176)" fill="#c3dbe6"/>
      <rect id="Rectangle_204" data-name="Rectangle 204" width="5.971" height="21.215" transform="translate(25.649)" fill="#c3dbe6"/>
    </g>
    <g id="Group_561" data-name="Group 561" transform="translate(140.427 151.327)">
      <path id="Path_1524" data-name="Path 1524" d="M215.844,444.577h-9.263l-.91-15,9.039-.571Z" transform="translate(-152.672 -182.188)" fill="#ffc29f"/>
      <path id="Path_1525" data-name="Path 1525" d="M162.627,444.387l-9.039-.27,1.619-13.154,8.364,1.282Z" transform="translate(-148.764 -182.335)" fill="#ffc29f"/>
      <g id="Group_554" data-name="Group 554" transform="translate(3.858 106.164)">
        <path id="Path_1526" data-name="Path 1526" d="M170.675,276.944,152.544,427.233h11.1L189.98,317.867,201.2,427.233h10.973l-2.7-150.289Z" transform="translate(-152.544 -276.944)" fill="#2c4c6a"/>
      </g>
      <path id="Path_1527" data-name="Path 1527" d="M243.562,216.02s1.836-3.532,1.7-5.156a9.065,9.065,0,0,1,1.187-6.448c.386-.583,1.461-2.129,1.461-2.129a1.917,1.917,0,0,1,.424,1.94,17.57,17.57,0,0,0-.772,2.078s.8-1.459,3.845-2.345c1.425-.414,7.038-1.838,7.038-1.838.794.009.685,1.147-.877,1.889,0,0,.7.72-.585,1.439,0,0,.9.671-.877,1.664,0,0,.706.568-1.125,1.664-1.64.981-4.286,2.4-4.871,3.334a37.239,37.239,0,0,0-2.045,5.525Z" transform="translate(-155.515 -165.166)" fill="#ffc29f"/>
      <g id="Group_555" data-name="Group 555" transform="translate(14.96 34.69)">
        <path id="Path_1528" data-name="Path 1528" d="M179.436,199.713s-11.287,3.3-13.851,3.979,0,17,3.508,35.751,2.483,31.7,2.483,31.7h38.8s1.612-60.545.719-62.6c-1.619-3.718-17.891-8.877-17.891-8.877Z" transform="translate(-164.547 -199.672)" fill="#ff9014"/>
      </g>
      <path id="Path_1529" data-name="Path 1529" d="M183,185.22s.386,9.293-1.234,13.025L183.741,202l5.217,3.17,3.3-2.477.968-2.829V185.22Z" transform="translate(-150.878 -163.898)" fill="#ffa980"/>
      <g id="Group_556" data-name="Group 556" transform="translate(27.673 4.909)">
        <path id="Path_1530" data-name="Path 1530" d="M178.606,177.022a4.895,4.895,0,0,1,.11-3.727c.431-.95,1.157-1.738,1.621-2.672a8.421,8.421,0,0,1,1.266-2.4,2.871,2.871,0,0,1,2.566-.685,4.671,4.671,0,0,1,2.355,1.37,6.878,6.878,0,0,1,1.8,3.288,11.081,11.081,0,0,1-.129,4.578,7.7,7.7,0,0,1-1.609,3.8,4.454,4.454,0,0,1-2.892,1.418c-1.079.089-2.649-.216-3.254-1.229-.3-.5-.44-1.084-.7-1.6A22.789,22.789,0,0,1,178.606,177.022Z" transform="translate(-178.291 -167.476)" fill="#2b2f3a"/>
      </g>
      <path id="Path_1531" data-name="Path 1531" d="M198.876,169.189s2.249,20.6-3.778,23.565c-3.9,1.919-10.118-.135-11.063-9.309s3.187-13.641,8-14.256A22.826,22.826,0,0,1,198.876,169.189Z" transform="translate(-151.038 -162.677)" fill="#ffc29f"/>
      <path id="Path_1532" data-name="Path 1532" d="M183.647,180.238a1.777,1.777,0,0,0-2.743,0c-1.35,1.529,1.119,4.726,2.988,4.881Z" transform="translate(-150.785 -163.473)" fill="#ffc29f"/>
      <g id="Group_557" data-name="Group 557" transform="translate(31.075)">
        <path id="Path_1533" data-name="Path 1533" d="M186.912,171.623c1.114.152,2.251.011,3.366.159a18.371,18.371,0,0,1,3.764,1.182,13.065,13.065,0,0,0,5.762.894,7.084,7.084,0,0,0,5.028-2.7,5.671,5.671,0,0,0-4.13-8.967c-2.226-.187-4.321.931-6.418,1.7a21.518,21.518,0,0,1-7,1.308,13.122,13.122,0,0,0-2.929.205,3.16,3.16,0,0,0-2.246,1.727c-.468,1.17.3,2.079,1.159,2.739A7.565,7.565,0,0,0,186.912,171.623Z" transform="translate(-181.968 -162.169)" fill="#2b2f3a"/>
      </g>
      <path id="Path_1534" data-name="Path 1534" d="M182.067,198.086s1.3,4.5,6.807,8.05c-.18,1.687-4.9,5.1-6.919-.527a28.959,28.959,0,0,1-1.311-6.015Z" transform="translate(-150.794 -164.863)" fill="#ff7800"/>
      <path id="Path_1535" data-name="Path 1535" d="M189.541,206.149a10.606,10.606,0,0,0,4.272-7.9l1.265,1.313s.937,5.616-1.042,8.2C192.68,209.542,189.722,207.235,189.541,206.149Z" transform="translate(-151.462 -164.876)" fill="#ff7800"/>
      <path id="Path_1536" data-name="Path 1536" d="M168.841,277.576s3.913,5.936,5.6,7.285a13.679,13.679,0,0,1,2.983,4.2l-4.972,6.764a6.628,6.628,0,0,1-3.931-4.568c-.944-3.575-1.838-3.972-3.389-7.412l-1.551-3.44Z" transform="translate(-149.514 -170.827)" fill="#ffc29f"/>
      <g id="Group_558" data-name="Group 558" transform="translate(0 39.3)">
        <path id="Path_1537" data-name="Path 1537" d="M163.784,204.656s-5.752.354-8.451,10.878-6.055,27.829-6.954,35.2c-.381,3.124,16.23,30.494,16.23,30.494s3.3-3,6.239-5.5c0,0-9.181-19.185-9.181-26.2,0,0,8.241-22.892,8.507-29.815C170.444,212.7,170.481,205.381,163.784,204.656Z" transform="translate(-148.373 -204.656)" fill="#ff9014"/>
      </g>
      <g id="Group_559" data-name="Group 559" transform="translate(52.001 43.384)">
        <path id="Path_1538" data-name="Path 1538" d="M214.1,209.254c2.153.327,8.725,14.974,12.907,22.53l4.182,7.555,10.118-25.9a5.751,5.751,0,0,1,5.4,2.429s-5.4,34.941-6.745,38.854-5.531,6.745-12.951-2.563-20.237-27.387-21.316-29.41S201.643,207.365,214.1,209.254Z" transform="translate(-204.592 -209.072)" fill="#ff9014"/>
      </g>
      <path id="Path_1539" data-name="Path 1539" d="M206.521,444.674h8.635s.944,0,3.778,2.967,11.063.135,14.165,6.072H205.847S203.284,448.991,206.521,444.674Z" transform="translate(-152.613 -183.364)" fill="#21323f"/>
      <g id="Group_560" data-name="Group 560" transform="translate(1.447 259.593)">
        <path id="Path_1540" data-name="Path 1540" d="M150.19,453.574c-1.034-3.463,1.394-5.982,2.159-9.039.472-1.888,9.943-3.052,10.882,1.079a22.64,22.64,0,0,1,.179,7.96Z" transform="translate(-149.937 -442.817)" fill="#21323f"/>
      </g>
      <rect id="Rectangle_205" data-name="Rectangle 205" width="13.626" height="2.159" transform="matrix(0.564, -0.826, 0.826, 0.564, 20.987, 125.974)" fill="#203b53"/>
      <rect id="Rectangle_206" data-name="Rectangle 206" width="38.85" height="2.788" transform="translate(21.989 106.164)" fill="#203b53"/>
      <path id="Path_1541" data-name="Path 1541" d="M193.017,319.55l5.4-20.169-3.553,38.134Z" transform="translate(-151.722 -172.463)" fill="#203b53"/>
      <path id="Path_1542" data-name="Path 1542" d="M214.965,235.924l.182-14.792,3.435,19.773Z" transform="translate(-153.369 -166.592)" fill="#ff7800"/>
      <path id="Path_1543" data-name="Path 1543" d="M168.311,235.662l2.515-9.163-.928,17.9S168.371,236.578,168.311,235.662Z" transform="translate(-149.869 -166.995)" fill="#ff7800"/>
    </g>
    <g id="Group_590" data-name="Group 590" transform="translate(421.374 224.665)">
      <g id="Group_585" data-name="Group 585">
        <g id="Group_569" data-name="Group 569" transform="translate(0 54.878)">
          <g id="Group_562" data-name="Group 562" transform="translate(92.246 62.242)">
            <path id="Path_1544" data-name="Path 1544" d="M569.8,446.7l-17.964-78.626h6.715L572.459,446.7A1.332,1.332,0,0,1,569.8,446.7Z" transform="translate(-551.835 -368.074)" fill="#2c4c6a"/>
          </g>
          <g id="Group_563" data-name="Group 563" transform="translate(46.863 62.242)">
            <path id="Path_1545" data-name="Path 1545" d="M520.735,446.7l-17.964-78.626h6.715L523.4,446.7A1.332,1.332,0,0,1,520.735,446.7Z" transform="translate(-502.771 -368.074)" fill="#2c4c6a"/>
          </g>
          <g id="Group_564" data-name="Group 564" transform="translate(0 62.242)">
            <path id="Path_1546" data-name="Path 1546" d="M454.767,446.7l17.964-78.626h-6.714L452.107,446.7A1.332,1.332,0,0,0,454.767,446.7Z" transform="translate(-452.107 -368.074)" fill="#a2c5d2"/>
          </g>
          <g id="Group_565" data-name="Group 565" transform="translate(57.036)">
            <path id="Path_1547" data-name="Path 1547" d="M573.771,300.784H537.239a5.6,5.6,0,0,0-5.263,3.686l-17.865,49.082a5.6,5.6,0,0,0,5.263,7.517h36.533a5.6,5.6,0,0,0,5.263-3.685L579.035,308.3A5.6,5.6,0,0,0,573.771,300.784Z" transform="translate(-513.769 -300.784)" fill="#a2c5d2"/>
          </g>
          <g id="Group_566" data-name="Group 566" transform="translate(6.871 60.285)">
            <path id="Path_1548" data-name="Path 1548" d="M555.371,369.872H461.491a1.956,1.956,0,0,1-1.956-1.956h0a1.956,1.956,0,0,1,1.956-1.956h93.879a1.956,1.956,0,0,1,1.956,1.956h0A1.956,1.956,0,0,1,555.371,369.872Z" transform="translate(-459.535 -365.959)" fill="#a2c5d2"/>
          </g>
          <g id="Group_567" data-name="Group 567" transform="translate(62.886 60.285)">
            <path id="Path_1549" data-name="Path 1549" d="M559.914,369.872H522.05a1.956,1.956,0,0,1-1.956-1.956h0a1.956,1.956,0,0,1,1.956-1.956h37.864a1.956,1.956,0,0,1,1.956,1.956h0A1.956,1.956,0,0,1,559.914,369.872Z" transform="translate(-520.094 -365.959)" fill="#91b9c4"/>
          </g>
          <g id="Group_568" data-name="Group 568" transform="translate(42.415 62.242)">
            <path id="Path_1550" data-name="Path 1550" d="M500.623,446.7l17.964-78.626h-6.715L497.962,446.7A1.332,1.332,0,0,0,500.623,446.7Z" transform="translate(-497.962 -368.074)" fill="#a2c5d2"/>
          </g>
        </g>
        <g id="Group_570" data-name="Group 570" transform="translate(65.218)">
          <path id="Path_1551" data-name="Path 1551" d="M532.4,245.7a6.343,6.343,0,0,0-5.846,6.136c-.45,5.846.6,8.882-1.917,14.727s-4.559,13.693,5.964,14.413,13.758.27,17,2.788,14.279-5.126,10.322-11.872-5.464-10.612-3.845-15.829-1.79-10.937-8.094-13.4C540.691,240.6,536.36,240.915,532.4,245.7Z" transform="translate(-522.615 -241.455)" fill="#21323f"/>
        </g>
        <g id="Group_571" data-name="Group 571" transform="translate(35.88 34.603)">
          <path id="Path_1552" data-name="Path 1552" d="M527.292,281.987s1.472,4.587-2.152,17.809c-3.618,13.2-4.8,17.582-8.211,20.056-2.105,1.527-26.032,1.527-26.032,1.527v-6.744l21.048-2.563s2.662-13.06,5.353-21.258c.931-2.837,2.494-10.2,5.819-11.648S527.292,281.987,527.292,281.987Z" transform="translate(-490.897 -278.865)" fill="#ff9014"/>
        </g>
        <g id="Group_573" data-name="Group 573" transform="translate(61.973 32.682)">
          <g id="Group_572" data-name="Group 572">
            <path id="Path_1553" data-name="Path 1553" d="M556.428,304.41c-.992,7.458-3.691,25.719-3.691,25.719H524.762s.842-11.17-.529-17.236a8.955,8.955,0,0,0-.992-2.731c-2.17-3.464-4.112-6.7-4.134-10.275a10.228,10.228,0,0,1,.356-2.677c1.251-4.673,3.14-15.023,5.482-17.894s14-2.514,14-2.514,15.244.045,19.813,2.6c1.217.681,1.683,2.213,1.781,4.047C560.853,289.16,557.172,298.765,556.428,304.41Z" transform="translate(-519.107 -276.788)" fill="#ff9014"/>
          </g>
          <path id="Path_1554" data-name="Path 1554" d="M551.917,308.711s-21.326,1.717-27.684,6.055a8.955,8.955,0,0,0-.992-2.731c-2.17-3.464-4.112-6.7-4.134-10.275,1.413,2.936,5.019,6.832,14.193,6.95C548.053,308.884,551.917,308.711,551.917,308.711Z" transform="translate(-519.107 -278.661)" fill="#ff7800"/>
          <path id="Path_1555" data-name="Path 1555" d="M559.156,304.95c-.992,7.458-3.691,25.719-3.691,25.719l1.338-43.16,6.465-3.519C563.581,289.7,559.9,299.306,559.156,304.95Z" transform="translate(-521.835 -277.328)" fill="#ff7800"/>
        </g>
        <g id="Group_575" data-name="Group 575" transform="translate(57.175 36.649)">
          <path id="Path_1556" data-name="Path 1556" d="M545.285,318.393s-13.343.491-17.531.761a29.486,29.486,0,0,0-6.167-1.62c-3.575-.269-6.723,3.3-7.667,6.744h30.921Z" transform="translate(-513.92 -283.811)" fill="#ffc29f"/>
          <g id="Group_574" data-name="Group 574" transform="translate(30.422)">
            <path id="Path_1557" data-name="Path 1557" d="M562.032,281.155a87.074,87.074,0,0,1,6.5,17.053c2.563,9.713,6.071,19.561,2.833,22.26s-24.014,1.619-24.014,1.619l-.539-7.285,15.827-2.563s-5.979-14.974-6.923-17.673-1.658-10.993,1.667-12.445S562.032,281.155,562.032,281.155Z" transform="translate(-546.809 -281.077)" fill="#ff9014"/>
          </g>
        </g>
        <g id="Group_581" data-name="Group 581" transform="translate(7.953 86.023)">
          <g id="Group_577" data-name="Group 577" transform="translate(0 95.699)">
            <path id="Path_1558" data-name="Path 1558" d="M480.41,445.529h-4.766l-.623-7.035,5.818-.578Z" transform="translate(-461.779 -437.917)" fill="#ffc29f"/>
            <g id="Group_576" data-name="Group 576" transform="translate(0 7.613)">
              <path id="Path_1559" data-name="Path 1559" d="M479.336,446.147s1.758,1.83,1.176,5.879c-.275,1.918-4.456,1.794-11.511,1.794h-7.024a1.273,1.273,0,0,1-.811-2.252,5.26,5.26,0,0,1,1.872-.966,67.24,67.24,0,0,0,11.534-4.456Z" transform="translate(-460.705 -446.147)" fill="#192730"/>
            </g>
          </g>
          <path id="Path_1560" data-name="Path 1560" d="M535.835,334.455c-.044,2.429,5.529,10.662,4.424,18.685-.725,5.261-5.243,10.455-15.785,10.455-14.394,0-37.329-.155-41.079,0-2.975.123-4.393.189-2.648,5.8,4.132,13.288.638,35.914-.447,66.539h-6.285s-5.577-31.782-7.888-47.157c-3.6-23.924-9.061-33.309,1.349-38.27,11.01-5.246,53-16.054,53-16.054Z" transform="translate(-460.76 -334.455)" fill="#203b53"/>
          <g id="Group_579" data-name="Group 579" transform="translate(13.566 95.699)">
            <path id="Path_1561" data-name="Path 1561" d="M495.077,445.529h-4.766l-.623-7.035,5.818-.578Z" transform="translate(-476.446 -437.917)" fill="#ffc29f"/>
            <g id="Group_578" data-name="Group 578" transform="translate(0 7.613)">
              <path id="Path_1562" data-name="Path 1562" d="M494,446.147s1.757,1.83,1.176,5.879c-.276,1.918-4.456,1.794-11.511,1.794h-7.025a1.273,1.273,0,0,1-.81-2.252,5.261,5.261,0,0,1,1.872-.966,67.238,67.238,0,0,0,11.534-4.456Z" transform="translate(-475.371 -446.147)" fill="#21323f"/>
            </g>
          </g>
          <g id="Group_580" data-name="Group 580" transform="translate(13.255)">
            <path id="Path_1563" data-name="Path 1563" d="M549.429,334.455c-.045,2.429,5.529,10.662,4.424,18.685-.725,5.261-5.243,10.455-15.785,10.455h-41.08c-2.977,0-4.393.189-2.647,5.8,4.132,13.288,2.288,36.184.22,66.539h-6.3s-6.225-31.782-8.537-47.157c-3.6-23.924-9.06-33.309,1.35-38.27,11.009-5.246,49.79-16.054,49.79-16.054Z" transform="translate(-475.035 -334.455)" fill="#2c4c6a"/>
          </g>
        </g>
        <g id="Group_584" data-name="Group 584" transform="translate(71.009 2.091)">
          <g id="Group_582" data-name="Group 582" transform="translate(3.186 20.863)">
            <path id="Path_1564" data-name="Path 1564" d="M532.321,277.127s-.084,5.961,3.957,9.377c0,0,8.584-4,11.687-9.364A80.972,80.972,0,0,0,532.321,277.127Z" transform="translate(-532.321 -267.056)" fill="#ffc29f"/>
            <path id="Path_1565" data-name="Path 1565" d="M534.21,276.171a2.487,2.487,0,0,0,2.114-2.7c0-2.483.248-7.2.248-7.2l7.959.674s-.674,7.8.607,9.227l1.282,1.431S535.49,279.462,534.21,276.171Z" transform="translate(-532.463 -266.27)" fill="#ffc29f"/>
          </g>
          <path id="Path_1566" data-name="Path 1566" d="M536.5,272.53s5.234.809,8.027-1.417L544.7,267l-8.2,1.776Z" transform="translate(-529.448 -245.462)" fill="#ffa980"/>
          <path id="Path_1567" data-name="Path 1567" d="M531.3,248.959s-7.015,19.234,2.834,21.392S546,262.256,546,262.256s2.545-.6,2.94-2.81c.382-2.137-2.581-1.327-2.581-1.327s2.618-7.909-3.327-10.568C536.786,244.758,532.512,246.221,531.3,248.959Z" transform="translate(-528.876 -243.89)" fill="#ffc29f"/>
          <g id="Group_583" data-name="Group 583" transform="translate(3.361)">
            <path id="Path_1568" data-name="Path 1568" d="M532.51,246.432a15.165,15.165,0,0,0,14.125,11.512s3.058-7.645.99-10.882S536.018,241.8,532.51,246.432Z" transform="translate(-532.51 -243.715)" fill="#21323f"/>
          </g>
        </g>
      </g>
      <g id="Group_589" data-name="Group 589" transform="translate(5.294 41.401)">
        <g id="Group_586" data-name="Group 586">
          <path id="Path_1569" data-name="Path 1569" d="M516.067,319.77H469.185l-11.232-30.86a2.009,2.009,0,0,1,1.888-2.7h42.605a2.009,2.009,0,0,1,1.888,1.322Z" transform="translate(-457.83 -286.214)" fill="#21323f"/>
        </g>
        <g id="Group_587" data-name="Group 587" transform="translate(38.054 33.556)">
          <path id="Path_1570" data-name="Path 1570" d="M547.018,325.407H500.427a1.457,1.457,0,0,1-1.457-1.457h0a1.457,1.457,0,0,1,1.457-1.458h46.591a1.457,1.457,0,0,1,1.457,1.458h0A1.457,1.457,0,0,1,547.018,325.407Z" transform="translate(-498.97 -322.492)" fill="#21323f"/>
        </g>
        <g id="Group_588" data-name="Group 588" transform="translate(10.043 33.556)">
          <path id="Path_1571" data-name="Path 1571" d="M516.736,325.407H470.145a1.457,1.457,0,0,1-1.457-1.457h0a1.457,1.457,0,0,1,1.457-1.458h46.591a1.458,1.458,0,0,1,1.458,1.458h0A1.457,1.457,0,0,1,516.736,325.407Z" transform="translate(-468.688 -322.492)" fill="#21323f"/>
        </g>
      </g>
    </g>
    <g id="Group_591" data-name="Group 591" transform="translate(223.827 302.537)">
      <path id="Path_1572" data-name="Path 1572" d="M638.184,443.159,612.008,328.591h9.784L642.06,443.159A1.941,1.941,0,0,1,638.184,443.159Z" transform="translate(-266.557 -325.864)" fill="#2c4c6a"/>
      <path id="Path_1573" data-name="Path 1573" d="M352.509,443.159,326.333,328.591h9.784l20.268,114.568A1.941,1.941,0,0,1,352.509,443.159Z" transform="translate(-245.124 -325.864)" fill="#2c4c6a"/>
      <path id="Path_1574" data-name="Path 1574" d="M242.414,443.159l26.176-114.568h-9.784L238.537,443.159A1.941,1.941,0,0,0,242.414,443.159Z" transform="translate(-238.537 -325.864)" fill="#c3dbe6"/>
      <path id="Path_1575" data-name="Path 1575" d="M514.226,443.159,540.4,328.591h-9.784L510.349,443.159A1.941,1.941,0,0,0,514.226,443.159Z" transform="translate(-258.93 -325.864)" fill="#c3dbe6"/>
      <rect id="Rectangle_207" data-name="Rectangle 207" width="378.105" height="5.453" rx="2.548" transform="translate(0)" fill="#a2c5d2"/>
      <path id="Path_1576" data-name="Path 1576" d="M554.328,331.1H637.4a2.727,2.727,0,0,0,2.727-2.726h0a2.726,2.726,0,0,0-2.727-2.727H554.328a2.726,2.726,0,0,0-2.727,2.727h0A2.727,2.727,0,0,0,554.328,331.1Z" transform="translate(-262.025 -325.643)" fill="#91b9c4"/>
    </g>
    <g id="Group_595" data-name="Group 595" transform="translate(276.282 266.066)">
      <g id="Group_592" data-name="Group 592" transform="translate(29.322)">
        <path id="Path_1577" data-name="Path 1577" d="M326.947,319.77h46.882l11.232-30.86a2.009,2.009,0,0,0-1.888-2.7H340.568a2.008,2.008,0,0,0-1.888,1.322Z" transform="translate(-326.947 -286.214)" fill="#21323f"/>
      </g>
      <g id="Group_593" data-name="Group 593" transform="translate(0 33.556)">
        <path id="Path_1578" data-name="Path 1578" d="M296.7,325.407H343.3a1.457,1.457,0,0,0,1.457-1.457h0a1.457,1.457,0,0,0-1.457-1.458H296.7a1.458,1.458,0,0,0-1.458,1.458h0A1.457,1.457,0,0,0,296.7,325.407Z" transform="translate(-295.247 -322.492)" fill="#21323f"/>
      </g>
      <g id="Group_594" data-name="Group 594" transform="translate(28.01 33.556)">
        <path id="Path_1579" data-name="Path 1579" d="M326.986,325.407h46.592a1.457,1.457,0,0,0,1.457-1.457h0a1.457,1.457,0,0,0-1.457-1.458H326.986a1.457,1.457,0,0,0-1.457,1.458h0A1.457,1.457,0,0,0,326.986,325.407Z" transform="translate(-325.529 -322.492)" fill="#21323f"/>
      </g>
    </g>
  </g>
</svg>
