<svg xmlns="http://www.w3.org/2000/svg" width="177" height="59" viewBox="0 0 177 59">
  <g id="Group_633" data-name="Group 633" transform="translate(-178 -2778.928)">
    <rect id="Rectangle_59" data-name="Rectangle 59" width="175" height="57" rx="6.362" transform="translate(179 2779.928)" fill="none" stroke="#fff" stroke-miterlimit="10" stroke-width="2"/>
    <text id="Available_on" data-name="Available on" transform="translate(187.934 2800.098)" fill="#fff" font-size="14" font-family="CenturyGothic, Century Gothic"><tspan x="0" y="0">Available on</tspan></text>
    <text id="App_Store" data-name="App Store" transform="translate(187.935 2823.102)" fill="#fff" font-size="20.509" font-family="CenturyGothic-Bold, Century Gothic" font-weight="700"><tspan x="0" y="0">App Store</tspan></text>
  </g>
</svg>
