<svg xmlns="http://www.w3.org/2000/svg" width="138" height="24" viewBox="0 0 138 24">
  <text id="Log_in_Sign_up" data-name="Log in/Sign up" transform="translate(0 19)" fill="#fff" font-size="20" font-family="CenturyGothic, Century Gothic"><tspan x="0" y="0">Log in/Sign up</tspan></text>
</svg>
