<svg xmlns="http://www.w3.org/2000/svg" width="2070" height="1523.376" viewBox="0 0 2070 1523.376">
  <path id="Path_1096" data-name="Path 1096" d="M2069.879,627.237a460.25,460.25,0,0,0-267.187-229.563L660.854,22.947A460.252,460.252,0,0,0,309.6,49.551L0,206.153V1523.376H2070Z" fill="#324762" opacity="0.7"/>
</svg>
