<svg xmlns="http://www.w3.org/2000/svg" width="98" height="98" viewBox="0 0 98 98">
  <g id="Group_621" data-name="Group 621" transform="translate(-1161 -4267)">
    <g id="Group_335" data-name="Group 335" opacity="0.3">
      <g id="Ellipse_80" data-name="Ellipse 80" transform="translate(1161 4267)" fill="none" stroke="#000" stroke-width="2">
        <circle cx="49" cy="49" r="49" stroke="none"/>
        <circle cx="49" cy="49" r="48" fill="none"/>
      </g>
      <g id="Group_327" data-name="Group 327" transform="translate(1180.467 4212.157)">
        <path id="Path_1126" data-name="Path 1126" d="M58.259,114.8H54.742V87.115A3.119,3.119,0,0,0,51.627,84H7.442a3.119,3.119,0,0,0-3.115,3.115V114.8H.808A.808.808,0,0,0,0,115.61v3.576a4.5,4.5,0,0,0,4.5,4.5H54.568a4.5,4.5,0,0,0,4.5-4.5V115.61A.808.808,0,0,0,58.259,114.8ZM5.943,87.115a1.5,1.5,0,0,1,1.5-1.5H51.627a1.5,1.5,0,0,1,1.5,1.5V114.8H5.943Zm14.131,29.3h18.92v.519a1.5,1.5,0,0,1-1.5,1.5H21.573a1.5,1.5,0,0,1-1.5-1.5Zm37.378,2.769a2.887,2.887,0,0,1-2.884,2.884H4.5a2.887,2.887,0,0,1-2.884-2.884v-2.769H18.458v.519a3.119,3.119,0,0,0,3.115,3.115h15.92a3.119,3.119,0,0,0,3.115-3.115v-.519H57.452Z"/>
        <path id="Path_1127" data-name="Path 1127" d="M118.7,146.381V124.808a.808.808,0,0,0-.808-.808H78.32a.808.808,0,0,0-.808.808v21.573a.808.808,0,0,0,.808.808h39.57A.808.808,0,0,0,118.7,146.381Zm-1.615-.808H79.127V125.615h37.955Z" transform="translate(-68.57 -35.385)"/>
        <path id="Path_1128" data-name="Path 1128" d="M213.487,191.377a.807.807,0,0,0,1.141,0h0l8.249-8.249a.808.808,0,0,0-1.142-1.142l-8.249,8.249a.808.808,0,0,0,0,1.142Z" transform="translate(-188.649 -86.473)"/>
        <path id="Path_1129" data-name="Path 1129" d="M269.359,203.553a.808.808,0,0,0,1.142,0l4.6-4.6a.808.808,0,0,0-1.142-1.142l-4.6,4.6a.808.808,0,0,0,0,1.142Z" transform="translate(-238.076 -100.475)"/>
        <path id="Path_1130" data-name="Path 1130" d="M189.867,203.714a.8.8,0,0,0,.571-.236l4.6-4.6a.808.808,0,0,0-1.122-1.162l-.02.02-4.6,4.6a.808.808,0,0,0,.571,1.378Z" transform="translate(-167.249 -100.399)"/>
      </g>
    </g>
  </g>
</svg>
