<svg xmlns="http://www.w3.org/2000/svg" width="651.334" height="370.086" viewBox="0 0 651.334 370.086">
  <g id="Group_396" data-name="Group 396" transform="translate(-49.333 -70.835)">
    <g id="Group_343" data-name="Group 343">
      <g id="Group_336" data-name="Group 336">
        <path id="Path_1137" data-name="Path 1137" d="M269.882,163.971v-10.25a1.814,1.814,0,0,0-1.815-1.815h-2.638a1.665,1.665,0,0,1-1.629-1.278,36.259,36.259,0,0,0-4.566-11.081,1.692,1.692,0,0,1,.221-2.1l1.855-1.855a1.816,1.816,0,0,0,0-2.568l-7.247-7.247a1.815,1.815,0,0,0-2.567,0l-1.853,1.853a1.69,1.69,0,0,1-2.1.22,36.29,36.29,0,0,0-11.084-4.571,1.664,1.664,0,0,1-1.277-1.628v-2.63a1.816,1.816,0,0,0-1.816-1.816H223.119a1.816,1.816,0,0,0-1.816,1.816v2.629a1.665,1.665,0,0,1-1.278,1.629,36.269,36.269,0,0,0-11.085,4.57,1.69,1.69,0,0,1-2.1-.221l-1.851-1.851a1.815,1.815,0,0,0-2.567,0l-7.247,7.247a1.816,1.816,0,0,0,0,2.568l1.853,1.853a1.689,1.689,0,0,1,.22,2.1,36.327,36.327,0,0,0-4.567,11.084,1.664,1.664,0,0,1-1.628,1.278H188.42a1.815,1.815,0,0,0-1.816,1.815v10.25a1.816,1.816,0,0,0,1.816,1.815h2.636a1.665,1.665,0,0,1,1.628,1.277,36.306,36.306,0,0,0,4.568,11.081,1.69,1.69,0,0,1-.22,2.1l-1.855,1.856a1.815,1.815,0,0,0,0,2.567l7.247,7.248a1.815,1.815,0,0,0,2.567,0l1.857-1.858a1.691,1.691,0,0,1,2.1-.22,36.294,36.294,0,0,0,11.079,4.562,1.665,1.665,0,0,1,1.278,1.629v2.643a1.816,1.816,0,0,0,1.816,1.816h10.249a1.816,1.816,0,0,0,1.816-1.816v-2.644a1.666,1.666,0,0,1,1.278-1.629,36.283,36.283,0,0,0,11.078-4.562,1.69,1.69,0,0,1,2.1.22l1.859,1.859a1.815,1.815,0,0,0,2.567,0l7.247-7.248a1.815,1.815,0,0,0,0-2.567l-1.857-1.857a1.691,1.691,0,0,1-.221-2.1,36.254,36.254,0,0,0,4.567-11.079,1.664,1.664,0,0,1,1.628-1.278h2.64A1.815,1.815,0,0,0,269.882,163.971Zm-41.641,23.774a28.9,28.9,0,1,1,28.883-28.908A28.891,28.891,0,0,1,228.241,187.745Z" fill="none" stroke="#dee3fc" stroke-miterlimit="10" stroke-width="0.79"/>
        <path id="Path_1138" data-name="Path 1138" d="M317.024,198.667v-6.985a1.237,1.237,0,0,0-1.237-1.237h-1.8a1.134,1.134,0,0,1-1.11-.871,24.724,24.724,0,0,0-3.111-7.551,1.151,1.151,0,0,1,.15-1.43l1.264-1.264a1.238,1.238,0,0,0,0-1.75l-4.939-4.939a1.237,1.237,0,0,0-1.749,0l-1.263,1.263a1.154,1.154,0,0,1-1.43.15,24.708,24.708,0,0,0-7.553-3.115,1.135,1.135,0,0,1-.871-1.11v-1.792a1.237,1.237,0,0,0-1.237-1.237h-6.985a1.237,1.237,0,0,0-1.237,1.237v1.792a1.135,1.135,0,0,1-.871,1.11,24.732,24.732,0,0,0-7.555,3.114,1.154,1.154,0,0,1-1.43-.15l-1.261-1.261a1.237,1.237,0,0,0-1.75,0l-4.938,4.939a1.238,1.238,0,0,0,0,1.75l1.263,1.263a1.152,1.152,0,0,1,.15,1.429,24.718,24.718,0,0,0-3.112,7.554,1.134,1.134,0,0,1-1.11.87h-1.8a1.237,1.237,0,0,0-1.237,1.237v6.985a1.237,1.237,0,0,0,1.237,1.238h1.8a1.133,1.133,0,0,1,1.109.87,24.762,24.762,0,0,0,3.113,7.552,1.151,1.151,0,0,1-.15,1.43l-1.264,1.264a1.238,1.238,0,0,0,0,1.75l4.938,4.939a1.238,1.238,0,0,0,1.75,0l1.266-1.266a1.151,1.151,0,0,1,1.429-.15,24.749,24.749,0,0,0,7.551,3.109,1.134,1.134,0,0,1,.871,1.11v1.8a1.237,1.237,0,0,0,1.237,1.237h6.985a1.237,1.237,0,0,0,1.237-1.237v-1.8a1.133,1.133,0,0,1,.871-1.109,24.756,24.756,0,0,0,7.55-3.11,1.152,1.152,0,0,1,1.429.15l1.267,1.267a1.237,1.237,0,0,0,1.749,0l4.939-4.939a1.238,1.238,0,0,0,0-1.75l-1.266-1.265a1.154,1.154,0,0,1-.15-1.43,24.729,24.729,0,0,0,3.112-7.551,1.134,1.134,0,0,1,1.11-.87h1.8A1.237,1.237,0,0,0,317.024,198.667Zm-28.378,15.092a18.582,18.582,0,1,1,18.573-18.589A18.578,18.578,0,0,1,288.646,213.759Z" fill="#dee3fc"/>
      </g>
      <g id="Group_337" data-name="Group 337">
        <circle id="Ellipse_81" data-name="Ellipse 81" cx="3.386" cy="3.386" r="3.386" transform="translate(182.104 376.844)" fill="#a4afff"/>
        <circle id="Ellipse_82" data-name="Ellipse 82" cx="3.386" cy="3.386" r="3.386" transform="translate(635.736 284.322)" fill="#a4afff"/>
        <circle id="Ellipse_83" data-name="Ellipse 83" cx="3.386" cy="3.386" r="3.386" transform="translate(628.964 163.413)" fill="#a4afff"/>
        <circle id="Ellipse_84" data-name="Ellipse 84" cx="2.124" cy="2.124" r="2.124" transform="translate(508.482 123.579)" fill="#a4afff"/>
        <path id="Path_1139" data-name="Path 1139" d="M198.746,97.41a2.124,2.124,0,1,1-2.124-2.124A2.124,2.124,0,0,1,198.746,97.41Z" fill="#a4afff"/>
        <path id="Path_1140" data-name="Path 1140" d="M245.756,228.206a2.124,2.124,0,1,1-2.124-2.124A2.124,2.124,0,0,1,245.756,228.206Z" fill="#a4afff"/>
        <path id="Path_1141" data-name="Path 1141" d="M167.835,383.615a2.124,2.124,0,1,1-2.124-2.123A2.123,2.123,0,0,1,167.835,383.615Z" fill="#a4afff"/>
        <circle id="Ellipse_85" data-name="Ellipse 85" cx="3.386" cy="3.386" r="3.386" transform="translate(586.065 378.844)" fill="#a4afff"/>
        <circle id="Ellipse_86" data-name="Ellipse 86" cx="3.386" cy="3.386" r="3.386" transform="translate(658.065 378.844)" fill="#a4afff"/>
        <circle id="Ellipse_87" data-name="Ellipse 87" cx="3.386" cy="3.386" r="3.386" transform="translate(253.738 84.791)" fill="#a4afff"/>
        <path id="Path_1142" data-name="Path 1142" d="M490.75,242.236a4.531,4.531,0,1,1-4.531-4.531A4.531,4.531,0,0,1,490.75,242.236Z" fill="#a4afff"/>
        <path id="Path_1143" data-name="Path 1143" d="M156.583,186.21a4.53,4.53,0,1,1-4.53-4.53A4.531,4.531,0,0,1,156.583,186.21Z" fill="#a4afff"/>
      </g>
      <g id="Group_338" data-name="Group 338">
        <rect id="Rectangle_65" data-name="Rectangle 65" width="7.026" height="7.026" rx="0.664" transform="translate(137.474 111.554)" fill="#fff"/>
        <rect id="Rectangle_66" data-name="Rectangle 66" width="7.026" height="7.026" rx="0.664" transform="translate(146.872 111.554)" fill="#fff"/>
        <rect id="Rectangle_67" data-name="Rectangle 67" width="7.026" height="7.026" rx="0.664" transform="translate(156.27 111.554)" fill="#fff"/>
      </g>
      <g id="Group_340" data-name="Group 340">
        <g id="Group_339" data-name="Group 339">
          <rect id="Rectangle_68" data-name="Rectangle 68" width="7.026" height="7.026" rx="0.664" transform="translate(616.053 358.287)" fill="#dee3fc"/>
          <rect id="Rectangle_69" data-name="Rectangle 69" width="7.026" height="7.026" rx="0.664" transform="translate(625.451 358.287)" fill="#dee3fc"/>
          <rect id="Rectangle_70" data-name="Rectangle 70" width="7.026" height="7.026" rx="0.664" transform="translate(634.849 358.287)" fill="#dee3fc"/>
        </g>
      </g>
      <g id="Group_342" data-name="Group 342">
        <g id="Group_341" data-name="Group 341">
          <rect id="Rectangle_71" data-name="Rectangle 71" width="7.026" height="7.026" rx="0.664" transform="translate(181.587 354.437)" fill="#dee3fc"/>
          <rect id="Rectangle_72" data-name="Rectangle 72" width="7.026" height="7.026" rx="0.664" transform="translate(190.985 354.437)" fill="#dee3fc"/>
          <rect id="Rectangle_73" data-name="Rectangle 73" width="7.026" height="7.026" rx="0.664" transform="translate(200.383 354.437)" fill="#dee3fc"/>
        </g>
      </g>
    </g>
    <g id="Group_352" data-name="Group 352">
      <g id="Group_344" data-name="Group 344">
        <rect id="Rectangle_74" data-name="Rectangle 74" width="178" height="343.86" rx="21.349" transform="translate(286 77.989)" fill="#3945ba"/>
        <rect id="Rectangle_75" data-name="Rectangle 75" width="171.334" height="335.962" rx="18.7" transform="translate(289.333 81)" fill="#fff"/>
        <path id="Path_1144" data-name="Path 1144" d="M453.167,99.114V397.329A12.664,12.664,0,0,1,440.5,409.993H309.5a12.664,12.664,0,0,1-12.664-12.664V99.114A12.664,12.664,0,0,1,309.5,86.449h21.846a3.2,3.2,0,0,1,2.864,1.769l2.32,4.631a6.257,6.257,0,0,0,5.612,3.475h65.722a6.257,6.257,0,0,0,5.612-3.475l2.32-4.631a3.2,3.2,0,0,1,2.864-1.769H440.5A12.664,12.664,0,0,1,453.167,99.114Z" fill="#dee3fc"/>
        <path id="Path_1145" data-name="Path 1145" d="M402.581,90.907H349.647a2.228,2.228,0,0,1-2.228-2.229h0a2.228,2.228,0,0,1,2.228-2.229h52.934a2.229,2.229,0,0,1,2.229,2.229h0A2.229,2.229,0,0,1,402.581,90.907Z" fill="#dee3fc"/>
      </g>
      <rect id="Rectangle_76" data-name="Rectangle 76" width="134.55" height="58.351" rx="8.379" transform="translate(306.2 341.292)" fill="none" stroke="#698bd1" stroke-linecap="round" stroke-linejoin="round" stroke-width="1" stroke-dasharray="2.837"/>
      <rect id="Rectangle_77" data-name="Rectangle 77" width="70.521" height="40.968" rx="6.044" transform="translate(361.924 215.488)" fill="none" stroke="#698bd1" stroke-linecap="round" stroke-linejoin="round" stroke-width="1" stroke-dasharray="2.837"/>
      <g id="Group_348" data-name="Group 348">
        <rect id="Rectangle_78" data-name="Rectangle 78" width="135.084" height="65.303" rx="7.201" transform="translate(311.098 266.283)" fill="#4b5a9b"/>
        <path id="Path_1146" data-name="Path 1146" d="M440.75,268.19v50.93a7.183,7.183,0,0,1-7.19,7.18H313.39a7.183,7.183,0,0,1-7.19-7.18V268.19a7.191,7.191,0,0,1,7.19-7.19H433.56A7.191,7.191,0,0,1,440.75,268.19Z" fill="#7f95f4"/>
        <rect id="Rectangle_79" data-name="Rectangle 79" width="45.124" height="45.124" rx="4.861" transform="translate(312.417 275.869)" fill="#fff"/>
        <g id="Group_345" data-name="Group 345">
          <path id="Path_1147" data-name="Path 1147" d="M394.638,281.578H363.459a1.535,1.535,0,0,1-1.535-1.535h0a1.535,1.535,0,0,1,1.535-1.535h31.179a1.536,1.536,0,0,1,1.536,1.535h0A1.536,1.536,0,0,1,394.638,281.578Z" fill="#b2c1f9"/>
          <path id="Path_1148" data-name="Path 1148" d="M380.43,287.708H363.459a1.535,1.535,0,0,1-1.535-1.535h0a1.536,1.536,0,0,1,1.535-1.536H380.43a1.536,1.536,0,0,1,1.535,1.536h0A1.535,1.535,0,0,1,380.43,287.708Z" fill="#b2c1f9"/>
          <path id="Path_1149" data-name="Path 1149" d="M432.6,287.708H386.676a1.535,1.535,0,0,1-1.535-1.535h0a1.536,1.536,0,0,1,1.535-1.536H432.6a1.536,1.536,0,0,1,1.535,1.536h0A1.536,1.536,0,0,1,432.6,287.708Z" fill="#b2c1f9"/>
          <path id="Path_1150" data-name="Path 1150" d="M389.717,293.837H363.459a1.535,1.535,0,0,1-1.535-1.535h0a1.535,1.535,0,0,1,1.535-1.535h26.258a1.535,1.535,0,0,1,1.535,1.535h0A1.536,1.536,0,0,1,389.717,293.837Z" fill="#b2c1f9"/>
          <path id="Path_1151" data-name="Path 1151" d="M412.005,293.837H395.5a1.535,1.535,0,0,1-1.535-1.535h0a1.535,1.535,0,0,1,1.535-1.535h16.507a1.535,1.535,0,0,1,1.535,1.535h0A1.536,1.536,0,0,1,412.005,293.837Z" fill="#b2c1f9"/>
          <path id="Path_1152" data-name="Path 1152" d="M432.6,293.837H417.4a1.536,1.536,0,0,1-1.535-1.535h0a1.535,1.535,0,0,1,1.535-1.535h15.2a1.535,1.535,0,0,1,1.535,1.535h0A1.536,1.536,0,0,1,432.6,293.837Z" fill="#b2c1f9"/>
          <path id="Path_1153" data-name="Path 1153" d="M432.6,299.966H363.459a1.535,1.535,0,0,1-1.535-1.535h0a1.535,1.535,0,0,1,1.535-1.535H432.6a1.535,1.535,0,0,1,1.535,1.535h0A1.535,1.535,0,0,1,432.6,299.966Z" fill="#b2c1f9"/>
          <path id="Path_1154" data-name="Path 1154" d="M401.511,306.1H363.459a1.535,1.535,0,0,1-1.535-1.535h0a1.535,1.535,0,0,1,1.535-1.535h38.052a1.535,1.535,0,0,1,1.535,1.535h0A1.535,1.535,0,0,1,401.511,306.1Z" fill="#b2c1f9"/>
          <path id="Path_1155" data-name="Path 1155" d="M432.6,306.1H407.645a1.535,1.535,0,0,1-1.535-1.535h0a1.535,1.535,0,0,1,1.535-1.535H432.6a1.535,1.535,0,0,1,1.535,1.535h0A1.535,1.535,0,0,1,432.6,306.1Z" fill="#b2c1f9"/>
          <path id="Path_1156" data-name="Path 1156" d="M385.816,312.224H363.459a1.535,1.535,0,0,1-1.535-1.535h0a1.535,1.535,0,0,1,1.535-1.535h22.357a1.535,1.535,0,0,1,1.535,1.535h0A1.535,1.535,0,0,1,385.816,312.224Z" fill="#b2c1f9"/>
          <path id="Path_1157" data-name="Path 1157" d="M414.224,312.224H391.867a1.535,1.535,0,0,1-1.535-1.535h0a1.535,1.535,0,0,1,1.535-1.535h22.357a1.535,1.535,0,0,1,1.535,1.535h0A1.535,1.535,0,0,1,414.224,312.224Z" fill="#b2c1f9"/>
          <path id="Path_1158" data-name="Path 1158" d="M432.6,312.224H419.625a1.535,1.535,0,0,1-1.535-1.535h0a1.535,1.535,0,0,1,1.535-1.535H432.6a1.536,1.536,0,0,1,1.535,1.535h0A1.535,1.535,0,0,1,432.6,312.224Z" fill="#b2c1f9"/>
          <path id="Path_1159" data-name="Path 1159" d="M394.638,318.354H363.459a1.536,1.536,0,0,1-1.535-1.536h0a1.535,1.535,0,0,1,1.535-1.535h31.179a1.536,1.536,0,0,1,1.536,1.535h0A1.536,1.536,0,0,1,394.638,318.354Z" fill="#b2c1f9"/>
          <path id="Path_1160" data-name="Path 1160" d="M432.6,281.578h-31.18a1.535,1.535,0,0,1-1.535-1.535h0a1.535,1.535,0,0,1,1.535-1.535H432.6a1.535,1.535,0,0,1,1.535,1.535h0A1.535,1.535,0,0,1,432.6,281.578Z" fill="#b2c1f9"/>
        </g>
        <g id="Group_347" data-name="Group 347">
          <path id="Path_1161" data-name="Path 1161" d="M440.75,268.19v2.14H306.2v-2.14a7.191,7.191,0,0,1,7.19-7.19H433.56A7.191,7.191,0,0,1,440.75,268.19Z" fill="#3052ce"/>
          <g id="Group_346" data-name="Group 346">
            <path id="Path_1162" data-name="Path 1162" d="M415.389,265.833a1.667,1.667,0,1,1-1.667-1.666A1.667,1.667,0,0,1,415.389,265.833Z" fill="#dee3fc"/>
            <path id="Path_1163" data-name="Path 1163" d="M423.917,265.833a1.667,1.667,0,1,1-1.667-1.666A1.667,1.667,0,0,1,423.917,265.833Z" fill="#dee3fc"/>
            <path id="Path_1164" data-name="Path 1164" d="M432.445,265.833a1.667,1.667,0,1,1-1.667-1.666A1.667,1.667,0,0,1,432.445,265.833Z" fill="#dee3fc"/>
          </g>
        </g>
      </g>
      <g id="Group_350" data-name="Group 350">
        <rect id="Rectangle_80" data-name="Rectangle 80" width="40.931" height="40.931" rx="7.151" transform="translate(314.077 215.526)" fill="none" stroke="#495ad6" stroke-miterlimit="10" stroke-width="0.896"/>
        <g id="Group_349" data-name="Group 349">
          <path id="Path_1165" data-name="Path 1165" d="M328.157,230.071l-5.9,5.9,5.944,5.943" fill="none" stroke="#495ad6" stroke-linecap="round" stroke-linejoin="round" stroke-width="1.672"/>
          <path id="Path_1166" data-name="Path 1166" d="M340.926,230.071l5.9,5.9-5.943,5.943" fill="none" stroke="#495ad6" stroke-linecap="round" stroke-linejoin="round" stroke-width="1.672"/>
          <line id="Line_1" data-name="Line 1" x1="5.523" y2="11.84" transform="translate(331.781 230.071)" fill="none" stroke="#495ad6" stroke-linecap="round" stroke-linejoin="round" stroke-width="1.672"/>
        </g>
      </g>
      <g id="Group_351" data-name="Group 351">
        <rect id="Rectangle_81" data-name="Rectangle 81" width="134.55" height="99.63" rx="8.18" transform="translate(306.2 107.44)" fill="#b2c1f9"/>
        <circle id="Ellipse_88" data-name="Ellipse 88" cx="19.5" cy="19.5" r="19.5" transform="translate(394 114.25)" fill="#f0f4ff"/>
        <path id="Path_1167" data-name="Path 1167" d="M385.29,207.07H314.38a8.183,8.183,0,0,1-8.18-8.18V185.78l31.03-53.75a4.214,4.214,0,0,1,7.3,0l23.43,40.58,17.4,30.14A4.135,4.135,0,0,1,385.29,207.07Z" fill="#fff"/>
        <path id="Path_1168" data-name="Path 1168" d="M415.87,207.07H348.06l19.9-34.46,10.72-18.57a3.792,3.792,0,0,1,6.57,0Z" fill="#f0f4ff"/>
      </g>
    </g>
    <g id="Group_362" data-name="Group 362">
      <g id="Group_354" data-name="Group 354">
        <rect id="Rectangle_82" data-name="Rectangle 82" width="52.276" height="78.563" transform="translate(498.092 361.8)" fill="#3b47bc"/>
        <rect id="Rectangle_83" data-name="Rectangle 83" width="20.016" height="78.563" transform="translate(570.385 440.363) rotate(180)" fill="#495ad6"/>
        <g id="Group_353" data-name="Group 353">
          <rect id="Rectangle_84" data-name="Rectangle 84" width="14.696" height="2.507" transform="translate(553.234 364.817)" fill="#b2c1f9"/>
          <rect id="Rectangle_85" data-name="Rectangle 85" width="14.696" height="2.507" transform="translate(553.234 370.204)" fill="#b2c1f9"/>
          <rect id="Rectangle_86" data-name="Rectangle 86" width="14.696" height="2.507" transform="translate(553.234 375.59)" fill="#b2c1f9"/>
          <rect id="Rectangle_87" data-name="Rectangle 87" width="14.696" height="2.507" transform="translate(553.234 380.976)" fill="#b2c1f9"/>
          <rect id="Rectangle_88" data-name="Rectangle 88" width="14.696" height="2.507" transform="translate(553.234 386.362)" fill="#b2c1f9"/>
          <rect id="Rectangle_89" data-name="Rectangle 89" width="14.696" height="2.507" transform="translate(553.234 391.749)" fill="#b2c1f9"/>
          <rect id="Rectangle_90" data-name="Rectangle 90" width="14.696" height="2.507" transform="translate(553.234 397.135)" fill="#b2c1f9"/>
          <rect id="Rectangle_91" data-name="Rectangle 91" width="14.696" height="2.507" transform="translate(553.234 402.521)" fill="#b2c1f9"/>
          <rect id="Rectangle_92" data-name="Rectangle 92" width="14.696" height="2.507" transform="translate(553.234 407.907)" fill="#b2c1f9"/>
          <rect id="Rectangle_93" data-name="Rectangle 93" width="14.696" height="2.507" transform="translate(553.234 413.294)" fill="#b2c1f9"/>
          <rect id="Rectangle_94" data-name="Rectangle 94" width="14.696" height="2.507" transform="translate(553.234 418.68)" fill="#b2c1f9"/>
          <rect id="Rectangle_95" data-name="Rectangle 95" width="14.696" height="2.507" transform="translate(553.234 424.066)" fill="#b2c1f9"/>
          <rect id="Rectangle_96" data-name="Rectangle 96" width="14.696" height="2.507" transform="translate(553.234 429.453)" fill="#b2c1f9"/>
          <rect id="Rectangle_97" data-name="Rectangle 97" width="14.696" height="2.507" transform="translate(553.234 434.839)" fill="#b2c1f9"/>
        </g>
      </g>
      <g id="Group_361" data-name="Group 361">
        <path id="Path_1169" data-name="Path 1169" d="M489.6,440.363h26.568s1.485-4.731-1.733-10.592c0,0-2.138,1.715-8.544.555a28.49,28.49,0,0,1-4.519,3.158C499.516,434.381,488.884,436.469,489.6,440.363Z" fill="#281616"/>
        <path id="Path_1170" data-name="Path 1170" d="M491.453,365.449c1.716,10.239,9.634,44.88,13.038,65.344,6.221.53,9.209-.184,10.792-.549-.31-7.136-.924-24.2-.852-31.691.118-12.651.712-29.334-4.857-38.489l-18.726,1.474c.114.988.218,1.793.309,2.368C491.247,364.457,491.35,364.966,491.453,365.449Z" fill="#002c54"/>
        <path id="Path_1171" data-name="Path 1171" d="M441.544,440.363h26.569s1.485-4.731-1.733-10.592c0,0-2.139,1.715-8.544.555a28.518,28.518,0,0,1-4.52,3.158C451.46,434.381,440.828,436.469,441.544,440.363Z" fill="#281616"/>
        <path id="Path_1172" data-name="Path 1172" d="M457.066,430.194a30.481,30.481,0,0,0,10.495.939c1.413-8.226,3.644-26.325,5.652-34.808,3.116-13.187,6.166-31.322,4.047-37.792l-18.42-4.626C458.778,354.49,457.279,409.992,457.066,430.194Z" fill="#052635"/>
        <path id="Path_1173" data-name="Path 1173" d="M530.378,335.025h0c-.37-3.64-.8-6.3-.8-6.3L509,333.763l-17.482,3.983c-6.481,1.444-14.31,3.182-21.213,4.742-7.745,1.76-12.887,7.643-11.19,15.4l1.941,9.407c10.833-.148,61.765-5.03,66.121-7.23C532.1,357.578,533.583,348.79,530.378,335.025Z" fill="#052635"/>
        <path id="Path_1174" data-name="Path 1174" d="M561.1,335.025h0a28.432,28.432,0,0,0-2.145-7.546l-19.231,6.284-17.482,3.983c-6.481,1.444-14.311,3.182-21.213,4.742-7.745,1.76-12.887,7.643-11.191,15.4l1.942,9.407c10.832-.148,56.11-1.726,66.121-7.23C562.733,357.407,564.3,348.79,561.1,335.025Z" fill="#002c54"/>
        <g id="Group_355" data-name="Group 355">
          <path id="Path_1175" data-name="Path 1175" d="M503.5,305.53s9.141-4.129,11.656.012c1.377,2.267.425,6.478-2.693,8.246s-20.734,9.219-37.362,13.374a40.367,40.367,0,0,0-1.855-4.744,87.545,87.545,0,0,0,14.875-8.3A94.819,94.819,0,0,1,503.5,305.53Z" fill="#e5918f"/>
        </g>
        <path id="Path_1176" data-name="Path 1176" d="M505.782,276.985l-7.834,31.291s.809,7.91,8.8,4.028,13.284-28.812,13.284-28.812Z" fill="#e5918f"/>
        <path id="Path_1177" data-name="Path 1177" d="M519.036,294.486c-.969-.234-1.894-.491-2.786-.758q-1.371-.4-2.608-.836a43.951,43.951,0,0,1-11.467-5.617c2.34-10.174,5.16-17.005,7.667-21.508a3.182,3.182,0,0,0,.19-.334l.2-.334a19.565,19.565,0,0,1,5.45-5.672l.657-.457.925,16.337.156,1.682Z" fill="#fff"/>
        <path id="Path_1178" data-name="Path 1178" d="M519.036,294.486c-.969-.234-1.894-.491-2.786-.758q-1.371-.4-2.608-.836c1.563-11.005,2.976-17.92,2.976-17.92l.8,2.017Z" fill="#c7e5f2"/>
        <path id="Path_1179" data-name="Path 1179" d="M565.284,266.236c-.19,4.836-1.037,12.6-1.772,20.4-.234,2.474-.457,4.959-.647,7.355-.133,1.493-2.384,9.462-2.474,10.888-.4,6.82-3.744,11.924-.579,22.31a16.35,16.35,0,0,1,.947,4.792c0,.713-.925,1.46-1.292,1.661-1.327.769-3.934,1.3-7.1,1.694h-.011a184.161,184.161,0,0,1-19.7.9c-6.809,0-17.028-1.081-18.321-2.8-1.181-1.571-.089-3.856.468-7.01,2.508-14.231,1.616-21.652,1.46-31.927,0-.256-.011-.513-.011-.78-.256-15.847-1.3-29.409-.568-34.3l.657-.457c1.081-.736,2.14-1.393,3.165-1.973.089-.044.2-.111.312-.178.312-.178.635-.345.936-.513a3.6,3.6,0,0,1,.357-.178,77.662,77.662,0,0,1,7.6-3c.245-.078.468-.156.658-.212,1.816-.111,3.788-.133,5.917-.077,1.85.055,4.681.3,7.756.7h.011a80.143,80.143,0,0,1,10.3,1.927s.034.012.056.023a21.2,21.2,0,0,1,8.1,5.672A27.447,27.447,0,0,1,565.284,266.236Z" fill="#fff"/>
        <path id="Path_1180" data-name="Path 1180" d="M559.812,327.193a16.35,16.35,0,0,1,.947,4.792c0,.713-.925,1.46-1.292,1.661-1.327.769-3.934,1.3-7.1,1.694,1.3-.157,3.554-2.225,3.555-4.09,0-1.307-1.694-10.13-1.226-15.825s1.393-14.732-.368-21.976-3.432-16.772-3.432-16.772l9.929,6s1.282,1.794,2.686,3.967c-.234,2.474-.457,4.959-.647,7.355C562.732,295.488,556.647,316.807,559.812,327.193Z" fill="#c7e5f2"/>
        <g id="Group_359" data-name="Group 359">
          <path id="Path_1181" data-name="Path 1181" d="M516.13,224.354s.859,10.385,4.3,11.083,2.6-3.715,2.6-3.715l-.481-4.931Z" fill="#002c54"/>
          <path id="Path_1182" data-name="Path 1182" d="M532.008,261.99c-6.742-.8-4.224-7.355-3.3-8.86.245-.078,1.4-.434,1.493-.49a.037.037,0,0,1,.023-.011,1.848,1.848,0,0,0,.523-.78c.658-1.728.357-5.171.335-5.394v-.635c.111-.412.223-.8.312-1.17l3.544-2.786,7.5-5.9s-1.994,9.863-.39,16.081a2.343,2.343,0,0,0,.992,1.494c0,.011.011,0,.011,0a1.815,1.815,0,0,0,.747.267C545.637,254.679,543.074,263.3,532.008,261.99Z" fill="#e5918f"/>
          <path id="Path_1183" data-name="Path 1183" d="M537.95,242.236a11.186,11.186,0,0,1-7.207,9.608c.664-1.717.358-5.163.337-5.384l2.993-2.35Z" fill="#cc6362"/>
          <path id="Path_1184" data-name="Path 1184" d="M517.776,225.832s1.559,21.547,7.377,23.378a15.131,15.131,0,0,0,12.734-6.461c1.534-2.063,3.471-2.526,4.1-5.017,1.028-4.046,2.478-11.508.628-16C539.985,215.323,518.026,210.237,517.776,225.832Z" fill="#e5918f"/>
          <path id="Path_1185" data-name="Path 1185" d="M542.708,218.171c-.1-3.914-4.057-5.376-4.057-5.376-3.944-1.846-12.14-1.05-20.59.835-1.981.442-4.467-.774-5.851.186-1.672,1.16-.007,6.46-.007,6.46,3.26,9.871,15.254,6.661,18.858,5.443.857,2.542.747,6.075,2.884,7.9,1.217,1.039,3.334,1.068,5.485.71.265.5,1.26.947,1.462,1.638.678,2.308.581,5.915.56,8.7l1.017-.5C542.6,243.413,553.122,218.494,542.708,218.171Z" fill="#002c54"/>
          <g id="Group_356" data-name="Group 356">
            <path id="Path_1186" data-name="Path 1186" d="M523.744,233.089c.3,1.789-.578,3.431-1.971,3.668s-2.768-1.021-3.073-2.81.578-3.432,1.971-3.669S523.439,231.3,523.744,233.089Z" fill="none" stroke="#fff" stroke-miterlimit="10" stroke-width="0.501"/>
            <path id="Path_1187" data-name="Path 1187" d="M530.774,231.775c.3,1.789-.577,3.432-1.97,3.669s-2.769-1.021-3.073-2.811.578-3.432,1.97-3.669S530.47,229.986,530.774,231.775Z" fill="none" stroke="#fff" stroke-miterlimit="10" stroke-width="0.501"/>
            <path id="Path_1188" data-name="Path 1188" d="M523.744,233.089s.308-.5,1.927-.36" fill="none" stroke="#fff" stroke-miterlimit="10" stroke-width="0.501"/>
            <line id="Line_2" data-name="Line 2" y1="0.96" x2="6.01" transform="translate(530.835 231.244)" fill="none" stroke="#fff" stroke-miterlimit="10" stroke-width="0.501"/>
          </g>
          <g id="Group_357" data-name="Group 357">
            <path id="Path_1189" data-name="Path 1189" d="M537.286,238.872c4.139,1.585,5.431-8.6,1.5-9.053-2.98-.342-3.1,3.816-3.1,3.816S534.923,237.967,537.286,238.872Z" fill="#e5918f"/>
          </g>
          <g id="Group_358" data-name="Group 358" opacity="0.5">
            <path id="Path_1190" data-name="Path 1190" d="M538.651,231.355s-2.445,1.294-.876,5.265" fill="none" stroke="#cc6362" stroke-miterlimit="10" stroke-width="0.724"/>
            <path id="Path_1191" data-name="Path 1191" d="M539.3,233.289a2.162,2.162,0,0,0-2.01,1.492" fill="none" stroke="#cc6362" stroke-miterlimit="10" stroke-width="0.724"/>
          </g>
        </g>
        <path id="Path_1192" data-name="Path 1192" d="M577.076,309.654v.01c-1.819,2.11-8.721,3.648-12.042.729-1.044-.93-2.222-3.38-3.379-6.42a198.762,198.762,0,0,1-5.732-19.4l15.446-7.893s1.987,8.91,3.7,17.377c0,0,.015.086.047.236.557,2.712,1.076,5.38,1.483,7.669a1.064,1.064,0,0,1,.03.182A32.439,32.439,0,0,1,577.076,309.654Z" fill="#e5918f"/>
        <path id="Path_1193" data-name="Path 1193" d="M550.089,273.753c1.492,6.2,6.18,17.956,6.18,17.956a24.465,24.465,0,0,0,11.336-1.371,20.887,20.887,0,0,0,7.221-4.69s-3.11-8.738-5.9-15.017c-2.505-5.636-4.009-7.74-5.093-8.857a24.548,24.548,0,0,0-6.133-4.561Z" fill="#fff"/>
        <path id="Path_1194" data-name="Path 1194" d="M569.621,277.8l-9.064-3.911-7.142-18.4s1.309.4,3.033,1.094h.008c.033.016.107.041.232.091a.948.948,0,0,1,.132.058c1.541.721,7.515,4.242,11.65,17.035l.1.323c.439,1.475.762,2.66.936,3.273.017.058.034.116.05.182C569.58,277.63,569.6,277.721,569.621,277.8Z" fill="#fff"/>
        <g id="Group_360" data-name="Group 360">
          <path id="Path_1195" data-name="Path 1195" d="M577.076,309.654v.01c-.133,1.131-.445,1.944-1,2.232-.089.057-1.357.812-1.446.869a77.1,77.1,0,0,1-9.574,4.951,346.869,346.869,0,0,1-33.434,12.013,39.408,39.408,0,0,0-2.045-4.667,87.591,87.591,0,0,0,14.514-8.91c7.205-5.5,17.568-12.179,17.568-12.179l2.617-3.078s9.3-8.562,10.8-6.84c0,0,.015.086.047.236.222.893.96,4.178,1.483,7.669a1.064,1.064,0,0,1,.03.182A32.439,32.439,0,0,1,577.076,309.654Z" fill="#e5918f"/>
          <path id="Path_1196" data-name="Path 1196" d="M530.642,324.539a5.755,5.755,0,0,1-3.672.706c-1.025-.215-1.439-.635-2.2-.768A17.069,17.069,0,0,1,521,323.6c-1-.49-1.389-.545-1.354.459s2.007,1.871,2.542,2.149a5.066,5.066,0,0,1,1.278,1.28c.073.112-3.287,1.87-4.19,1.513a2.616,2.616,0,0,0-.116,1.261c.153.451.844.61.9.837s-.159.69-.009,1.051.766.361,1.015.946-.025.6.156,1.2.962.721,1.11,1.035.07.683.4.9,3.349-.753,4.452-1.225,4.05-4.716,7.311-6.162Z" fill="#e5918f"/>
        </g>
        <path id="Path_1197" data-name="Path 1197" d="M546.082,343.477h-23.5v-2.3h23.5a1.149,1.149,0,0,1,1.15,1.149h0A1.15,1.15,0,0,1,546.082,343.477Z" fill="#375f84"/>
        <path id="Path_1198" data-name="Path 1198" d="M533.369,343.477H474.536a1.567,1.567,0,0,1-1.511-1.149l-12.042-43.347a1.506,1.506,0,0,1,1.451-1.909h56.893a2.951,2.951,0,0,1,2.843,2.162l12,43.191A.83.83,0,0,1,533.369,343.477Z" fill="#375f84"/>
        <path id="Path_1199" data-name="Path 1199" d="M531.239,343.477H472.407a1.57,1.57,0,0,1-1.512-1.149l-12.041-43.347a1.506,1.506,0,0,1,1.451-1.909H517.2a2.952,2.952,0,0,1,2.844,2.162l12,43.191A.83.83,0,0,1,531.239,343.477Z" fill="#467cdb"/>
      </g>
    </g>
    <g id="Group_363" data-name="Group 363">
      <path id="Path_1200" data-name="Path 1200" d="M298.064,315.469l6.815-6.987a18.277,18.277,0,0,1,.607-3.773c.371-.657,1.33-3.091,1.807-3.356a2.469,2.469,0,0,1,1.433,0,6.561,6.561,0,0,1,1.371-.319,4.02,4.02,0,0,1,1.219.388s1.019-.069,1.443-.069a.906.906,0,0,1,.561.119,30.1,30.1,0,0,1,2.439-2.527c.8-.636,2.013-1.809,2.374-1.8.34,0,.49.6.242,1.239a7.06,7.06,0,0,1-1.325,1.664l-3.1,4.7a6.675,6.675,0,0,0,.813-.389c.283-.177,2.177-1.946,2.292-2.017s.963-.636,1.459-.07-3.251,5.053-3.853,5.655a32.814,32.814,0,0,1-4.045,2.345s-3.636,6.541-3.99,6.965S298.064,315.469,298.064,315.469Z" fill="#e49191"/>
      <path id="Path_1201" data-name="Path 1201" d="M304.478,283.217s-3.807,22.052-7.39,22.564c0,0-14.305.577-17.491-16.777-2.764-15.049,8.321-18.258,13.505-17.107S305.591,273.8,304.478,283.217Z" fill="#e49191"/>
      <path id="Path_1202" data-name="Path 1202" d="M291.835,302.254s-2,2.7-2.706,9.244a21.237,21.237,0,0,1-11.45-1.976A81.044,81.044,0,0,0,281,290.272" fill="#e49191"/>
      <path id="Path_1203" data-name="Path 1203" d="M287.8,268.2c-7.817,1.727-7.192,6.6-7.192,6.6-3.659.906-4.446,2.417-4.416,9.172s2.475,14.867,3.823,15.527,8.99.692,9.628.46,3.312-6.429,2.689-7.519.031-5.378,1.811-5.54,1.431,2.6,1.431,2.6l1.463-.321,1.13-2.77c10.33.615,13-11.157,13-11.157C308.685,273.632,295.619,266.478,287.8,268.2Z" fill="#002c54"/>
      <path id="Path_1204" data-name="Path 1204" d="M201.027,417.489l7.9,1.142-2.618,9.23-8.56-2.159a5.565,5.565,0,0,1,1.775-8.213A2.879,2.879,0,0,1,201.027,417.489Z" fill="#e5918f"/>
      <path id="Path_1205" data-name="Path 1205" d="M260.021,393.783l-11.65-35.274s-3.531-1.258-5.339,0c0,0-12.136,6.526-10.842,25.134.976,14.028,3.938,29.243,5.138,35.344l-31.081-1.15a10.59,10.59,0,0,0-1.354,10.491s39.056,10.5,44.557,11.474c4.471.79,9.365,1.4,11.728-.627C265.341,435.609,260.021,393.783,260.021,393.783Z"/>
      <path id="Path_1206" data-name="Path 1206" d="M237.828,417.489l7.9,1.142-2.618,9.23-8.56-2.159a5.565,5.565,0,0,1,1.775-8.213A2.879,2.879,0,0,1,237.828,417.489Z" fill="#e5918f"/>
      <path id="Path_1207" data-name="Path 1207" d="M234.96,422.328c-.177,1.817,1.413,3.453,1.122,3.906s-5.6,9.367-5.6,9.367,4.011,1.747,3.364,4.27H223.684a8.433,8.433,0,0,1-2.588-5.823,29.467,29.467,0,0,1,2.5-7.44c1.811-3.494,5.93-11.382,5.93-11.382a5.751,5.751,0,0,1,3.386.065,20.536,20.536,0,0,1,4.914,2.2S235.4,417.838,234.96,422.328Z" fill="#467cdb"/>
      <path id="Path_1208" data-name="Path 1208" d="M316.331,431.765c-2.508-9.358-26.1-49.309-34.088-60.1-16.4-7.119-33.872-13.16-33.872-13.16-7.227,1.726-10.787,16.289-6.688,26,2.812,6.661,20.652,23.424,31.577,33.293l-30.316-.036s-3.572,5.338-.335,10.408c0,0,50.421,11.465,54.844,12.112s14.347,0,14.347,0S318.442,439.643,316.331,431.765Z" fill="#002c54"/>
      <path id="Path_1209" data-name="Path 1209" d="M198.159,422.328c-.177,1.817,1.413,3.453,1.122,3.906s-5.605,9.367-5.605,9.367,4.012,1.747,3.365,4.27H186.883a8.428,8.428,0,0,1-2.588-5.823,29.467,29.467,0,0,1,2.5-7.44c1.811-3.494,5.93-11.382,5.93-11.382a5.749,5.749,0,0,1,3.386.065,20.558,20.558,0,0,1,4.914,2.2S198.6,417.838,198.159,422.328Z" fill="#467cdb"/>
      <path id="Path_1210" data-name="Path 1210" d="M354.291,308.679l-16.261,28.6-11.646-11.608-9.639,14.348,2.8,1.344-1.007.838s22.474,10.945,25.167,8.531,15.241-38.8,15.241-38.8Z" fill="#e49191"/>
      <path id="Path_1211" data-name="Path 1211" d="M328.46,327.49s-3.07,12.95-9.21,19.09l-15.71-5.98s-7.29,12.26-14.42,21.66c-2.74,3.63-3.65,8.74-6.87,9.41-.2-.07-.39-.13-.59-.18-8.73-2.62-21.61.16-32.24-3.79-11.74-4.37-9.46-6.83-9.46-6.83a151.652,151.652,0,0,0,11.16-26.42A161.982,161.982,0,0,0,255,318.52a18.342,18.342,0,0,1,15.44-14.77c.09-.01.17-.03.26-.04,8.9-1.13,32.2,1.62,36.73,3.56S328.46,327.49,328.46,327.49Z" fill="#467cdb"/>
      <path id="Path_1212" data-name="Path 1212" d="M303.54,340.6s-7.29,12.26-14.42,21.66c-2.74,3.63-3.65,8.74-6.87,9.41,1.41-.5,3.75-7.92,4.58-9.59s2.17-3.33,5.05-9.16,6.766-14.4,6.766-14.4Z" fill="#5996ef"/>
      <path id="Path_1213" data-name="Path 1213" d="M273.26,417.8a50.873,50.873,0,0,1,15.672,2.252" fill="none" stroke="#000" stroke-miterlimit="10" stroke-width="1.065"/>
      <path id="Path_1214" data-name="Path 1214" d="M366.444,298.151a15.22,15.22,0,0,0-2.734,1.972l.927-1.775a17.467,17.467,0,0,0,1.667-1.834c.442-.65.209-1.3-.139-1.335a13.623,13.623,0,0,0-2.561,1.831l.187-.357a17.471,17.471,0,0,0,1.667-1.834c.441-.65.209-1.3-.139-1.335s-3.169,2.333-3.169,2.333l-1.374,1.839,1.035-2.011a8.678,8.678,0,0,0,.91-1.394c.363-.727.1-.95-.1-1.192s-2.1,1.172-2.586,1.737a29.325,29.325,0,0,0-2.141,3.182l-1.587,3.283c-.1-.951-.261-2.579-.373-3.616-.162-1.495-1.515-1.849-1.562-1.122s-.8,4.3-.63,6.242.495,3.212.616,4.3-1.01,3.271-1.01,3.271,4.525,2.81,5.274,1.969a35.343,35.343,0,0,0,3.11-3.967,21.128,21.128,0,0,0,1.771-4l1.414-3.021a17.471,17.471,0,0,0,1.667-1.834C367.024,298.835,366.792,298.185,366.444,298.151Z" fill="#e49191"/>
    </g>
    <g id="Group_365" data-name="Group 365">
      <path id="Path_1215" data-name="Path 1215" d="M626.192,207.074H573.128a6.158,6.158,0,0,0-6.158,6.158v12.535a6.16,6.16,0,0,0,5.381,6.11.886.886,0,0,1,.777.881v6.863a.408.408,0,0,0,.74.237l5.405-7.558a.9.9,0,0,1,.728-.375h46.191a6.158,6.158,0,0,0,6.158-6.158V213.232A6.158,6.158,0,0,0,626.192,207.074Z" fill="none" stroke="#fff" stroke-miterlimit="10" stroke-width="0.896"/>
      <g id="Group_364" data-name="Group 364">
        <path id="Path_1216" data-name="Path 1216" d="M581.269,219.481a2.027,2.027,0,1,1-2.028-2.028A2.027,2.027,0,0,1,581.269,219.481Z" fill="none" stroke="#fff" stroke-miterlimit="10" stroke-width="0.896"/>
        <path id="Path_1217" data-name="Path 1217" d="M591.478,219.481a2.028,2.028,0,1,1-2.027-2.028A2.027,2.027,0,0,1,591.478,219.481Z" fill="none" stroke="#fff" stroke-miterlimit="10" stroke-width="0.896"/>
        <path id="Path_1218" data-name="Path 1218" d="M601.687,219.481a2.027,2.027,0,1,1-2.027-2.028A2.026,2.026,0,0,1,601.687,219.481Z" fill="none" stroke="#fff" stroke-miterlimit="10" stroke-width="0.896"/>
        <path id="Path_1219" data-name="Path 1219" d="M611.9,219.481a2.027,2.027,0,1,1-2.028-2.028A2.027,2.027,0,0,1,611.9,219.481Z" fill="none" stroke="#fff" stroke-miterlimit="10" stroke-width="0.896"/>
        <path id="Path_1220" data-name="Path 1220" d="M622.106,219.481a2.027,2.027,0,1,1-2.027-2.028A2.026,2.026,0,0,1,622.106,219.481Z" fill="none" stroke="#fff" stroke-miterlimit="10" stroke-width="0.896"/>
      </g>
    </g>
    <g id="Group_367" data-name="Group 367">
      <path id="Path_1221" data-name="Path 1221" d="M206.891,262.031h53.064a6.157,6.157,0,0,1,6.157,6.157v12.536a6.158,6.158,0,0,1-5.38,6.109.888.888,0,0,0-.777.882v6.862a.408.408,0,0,1-.74.237l-5.4-7.558a.894.894,0,0,0-.728-.374H206.891a6.158,6.158,0,0,1-6.158-6.158V268.188A6.158,6.158,0,0,1,206.891,262.031Z" fill="none" stroke="#fff" stroke-miterlimit="10" stroke-width="0.896"/>
      <g id="Group_366" data-name="Group 366">
        <path id="Path_1222" data-name="Path 1222" d="M251.814,274.438a2.028,2.028,0,1,0,2.028-2.028A2.028,2.028,0,0,0,251.814,274.438Z" fill="none" stroke="#fff" stroke-miterlimit="10" stroke-width="0.896"/>
        <path id="Path_1223" data-name="Path 1223" d="M241.6,274.438a2.028,2.028,0,1,0,2.027-2.028A2.028,2.028,0,0,0,241.6,274.438Z" fill="none" stroke="#fff" stroke-miterlimit="10" stroke-width="0.896"/>
        <path id="Path_1224" data-name="Path 1224" d="M231.4,274.438a2.027,2.027,0,1,0,2.028-2.028A2.028,2.028,0,0,0,231.4,274.438Z" fill="none" stroke="#fff" stroke-miterlimit="10" stroke-width="0.896"/>
        <path id="Path_1225" data-name="Path 1225" d="M221.186,274.438a2.027,2.027,0,1,0,2.027-2.028A2.028,2.028,0,0,0,221.186,274.438Z" fill="none" stroke="#fff" stroke-miterlimit="10" stroke-width="0.896"/>
        <path id="Path_1226" data-name="Path 1226" d="M210.977,274.438A2.027,2.027,0,1,0,213,272.41,2.027,2.027,0,0,0,210.977,274.438Z" fill="none" stroke="#fff" stroke-miterlimit="10" stroke-width="0.896"/>
      </g>
    </g>
    <g id="Group_369" data-name="Group 369">
      <path id="Path_1227" data-name="Path 1227" d="M527.358,178.154H430.642a9.658,9.658,0,0,1-9.658-9.658h0a9.658,9.658,0,0,1,9.658-9.658h96.716a9.658,9.658,0,0,1,9.658,9.658h0A9.658,9.658,0,0,1,527.358,178.154Z" fill="#fff" stroke="#495ad6" stroke-miterlimit="10" stroke-width="0.896"/>
      <g id="Group_368" data-name="Group 368">
        <path id="Path_1228" data-name="Path 1228" d="M525.941,167.831a5.136,5.136,0,1,1-5.136-5.137A5.136,5.136,0,0,1,525.941,167.831Z" fill="none" stroke="#495ad6" stroke-miterlimit="10" stroke-width="1.672"/>
        <line id="Line_3" data-name="Line 3" x2="2.836" y2="2.836" transform="translate(524.436 171.462)" fill="none" stroke="#495ad6" stroke-linecap="round" stroke-miterlimit="10" stroke-width="1.672"/>
      </g>
    </g>
    <g id="Group_392" data-name="Group 392">
      <g id="Group_370" data-name="Group 370">
        <rect id="Rectangle_98" data-name="Rectangle 98" width="39.747" height="39.747" rx="7.708" transform="translate(348.812 401.082)" fill="#193091"/>
        <rect id="Rectangle_99" data-name="Rectangle 99" width="39.747" height="39.747" rx="7.708" transform="translate(341.568 401.082)" fill="#495ad6"/>
        <path id="Path_1229" data-name="Path 1229" d="M356.747,413.453l11.41,6.587a1.057,1.057,0,0,1,0,1.83l-11.41,6.587a1.056,1.056,0,0,1-1.584-.915V414.368A1.056,1.056,0,0,1,356.747,413.453Z" fill="#fff"/>
      </g>
      <g id="Group_371" data-name="Group 371">
        <rect id="Rectangle_100" data-name="Rectangle 100" width="51.959" height="51.959" rx="10.076" transform="translate(590.652 388.87)" fill="#193091"/>
        <rect id="Rectangle_101" data-name="Rectangle 101" width="51.959" height="51.959" rx="10.076" transform="translate(581.183 388.87)" fill="#495ad6"/>
        <path id="Path_1230" data-name="Path 1230" d="M613.405,401.618a6.243,6.243,0,1,1-6.243-6.243A6.243,6.243,0,0,1,613.405,401.618Z" fill="#fff"/>
        <path id="Path_1231" data-name="Path 1231" d="M620.176,422.754v9.216a1.508,1.508,0,0,1-1.507,1.508H595.656a1.508,1.508,0,0,1-1.508-1.508v-9.216a13.014,13.014,0,0,1,13.014-13.013h0A13.013,13.013,0,0,1,620.176,422.754Z" fill="#fff"/>
      </g>
      <g id="Group_372" data-name="Group 372">
        <path id="Path_1232" data-name="Path 1232" d="M490.965,189.28H470.536A1.535,1.535,0,0,1,469,187.745h0a1.536,1.536,0,0,1,1.535-1.535h20.429a1.535,1.535,0,0,1,1.535,1.535h0A1.535,1.535,0,0,1,490.965,189.28Z" fill="#f0f4ff"/>
        <path id="Path_1233" data-name="Path 1233" d="M511.4,189.28H496.618a1.535,1.535,0,0,1-1.535-1.535h0a1.536,1.536,0,0,1,1.535-1.535H511.4a1.535,1.535,0,0,1,1.535,1.535h0A1.535,1.535,0,0,1,511.4,189.28Z" fill="#f0f4ff"/>
        <path id="Path_1234" data-name="Path 1234" d="M479.216,196.03h-8.68A1.535,1.535,0,0,1,469,194.495h0a1.536,1.536,0,0,1,1.535-1.535h8.68a1.536,1.536,0,0,1,1.535,1.535h0A1.535,1.535,0,0,1,479.216,196.03Z" fill="#f0f4ff"/>
        <path id="Path_1235" data-name="Path 1235" d="M511.4,196.03H484.368a1.535,1.535,0,0,1-1.535-1.535h0a1.536,1.536,0,0,1,1.535-1.535H511.4a1.535,1.535,0,0,1,1.535,1.535h0A1.535,1.535,0,0,1,511.4,196.03Z" fill="#f0f4ff"/>
        <path id="Path_1236" data-name="Path 1236" d="M497.465,202.78H470.536A1.535,1.535,0,0,1,469,201.245h0a1.536,1.536,0,0,1,1.535-1.535h26.929A1.535,1.535,0,0,1,499,201.245h0A1.535,1.535,0,0,1,497.465,202.78Z" fill="#f0f4ff"/>
        <path id="Path_1237" data-name="Path 1237" d="M511.4,202.78h-8.679a1.536,1.536,0,0,1-1.536-1.535h0a1.536,1.536,0,0,1,1.536-1.535H511.4a1.535,1.535,0,0,1,1.535,1.535h0A1.535,1.535,0,0,1,511.4,202.78Z" fill="#f0f4ff"/>
      </g>
      <g id="Group_376" data-name="Group 376">
        <rect id="Rectangle_102" data-name="Rectangle 102" width="78.962" height="43.646" rx="3.823" transform="translate(157.141 302.427)" fill="#193091"/>
        <line id="Line_4" data-name="Line 4" x2="72.25" transform="translate(160.497 308.323)" fill="none" stroke="#fff" stroke-linecap="round" stroke-miterlimit="10" stroke-width="0.896"/>
        <circle id="Ellipse_89" data-name="Ellipse 89" cx="0.875" cy="0.875" r="0.875" transform="translate(229.965 304.448)" fill="#fff"/>
        <circle id="Ellipse_90" data-name="Ellipse 90" cx="0.875" cy="0.875" r="0.875" transform="translate(225.402 304.448)" fill="#fff"/>
        <circle id="Ellipse_91" data-name="Ellipse 91" cx="0.875" cy="0.875" r="0.875" transform="translate(220.84 304.448)" fill="#fff"/>
        <g id="Group_375" data-name="Group 375">
          <g id="Group_373" data-name="Group 373">
            <path id="Path_1238" data-name="Path 1238" d="M173.965,314.2h-12.26a1.208,1.208,0,0,1-1.208-1.208h0a1.209,1.209,0,0,1,1.208-1.209h12.26a1.209,1.209,0,0,1,1.208,1.209h0A1.208,1.208,0,0,1,173.965,314.2Z" fill="#6589d1"/>
            <path id="Path_1239" data-name="Path 1239" d="M173.965,319.781h-12.26a1.208,1.208,0,0,1-1.208-1.208h0a1.208,1.208,0,0,1,1.208-1.208h12.26a1.208,1.208,0,0,1,1.208,1.208h0A1.208,1.208,0,0,1,173.965,319.781Z" fill="#6589d1"/>
            <path id="Path_1240" data-name="Path 1240" d="M173.965,325.365h-12.26a1.208,1.208,0,0,1-1.208-1.209h0a1.208,1.208,0,0,1,1.208-1.208h12.26a1.208,1.208,0,0,1,1.208,1.208h0A1.208,1.208,0,0,1,173.965,325.365Z" fill="#6589d1"/>
            <path id="Path_1241" data-name="Path 1241" d="M173.965,330.948h-12.26a1.208,1.208,0,0,1-1.208-1.208h0a1.209,1.209,0,0,1,1.208-1.209h12.26a1.209,1.209,0,0,1,1.208,1.209h0A1.208,1.208,0,0,1,173.965,330.948Z" fill="#6589d1"/>
            <path id="Path_1242" data-name="Path 1242" d="M173.965,336.531h-12.26a1.208,1.208,0,0,1-1.208-1.208h0a1.208,1.208,0,0,1,1.208-1.208h12.26a1.208,1.208,0,0,1,1.208,1.208h0A1.208,1.208,0,0,1,173.965,336.531Z" fill="#6589d1"/>
            <path id="Path_1243" data-name="Path 1243" d="M173.965,342.115h-12.26a1.208,1.208,0,0,1-1.208-1.209h0a1.208,1.208,0,0,1,1.208-1.208h12.26a1.208,1.208,0,0,1,1.208,1.208h0A1.208,1.208,0,0,1,173.965,342.115Z" fill="#6589d1"/>
          </g>
          <g id="Group_374" data-name="Group 374">
            <path id="Path_1244" data-name="Path 1244" d="M231.538,314.2H178.705a1.208,1.208,0,0,1-1.208-1.208h0a1.209,1.209,0,0,1,1.208-1.209h52.833a1.209,1.209,0,0,1,1.209,1.209h0A1.208,1.208,0,0,1,231.538,314.2Z" fill="#3b5fb7"/>
            <path id="Path_1245" data-name="Path 1245" d="M231.538,319.781H178.705a1.208,1.208,0,0,1-1.208-1.208h0a1.208,1.208,0,0,1,1.208-1.208h52.833a1.208,1.208,0,0,1,1.209,1.208h0A1.208,1.208,0,0,1,231.538,319.781Z" fill="#3b5fb7"/>
            <path id="Path_1246" data-name="Path 1246" d="M231.538,325.365H178.705a1.208,1.208,0,0,1-1.208-1.209h0a1.208,1.208,0,0,1,1.208-1.208h52.833a1.208,1.208,0,0,1,1.209,1.208h0A1.209,1.209,0,0,1,231.538,325.365Z" fill="#3b5fb7"/>
            <path id="Path_1247" data-name="Path 1247" d="M231.538,330.948H178.705a1.208,1.208,0,0,1-1.208-1.208h0a1.209,1.209,0,0,1,1.208-1.209h52.833a1.209,1.209,0,0,1,1.209,1.209h0A1.208,1.208,0,0,1,231.538,330.948Z" fill="#3b5fb7"/>
            <path id="Path_1248" data-name="Path 1248" d="M231.538,336.531H178.705a1.208,1.208,0,0,1-1.208-1.208h0a1.208,1.208,0,0,1,1.208-1.208h52.833a1.208,1.208,0,0,1,1.209,1.208h0A1.208,1.208,0,0,1,231.538,336.531Z" fill="#3b5fb7"/>
            <path id="Path_1249" data-name="Path 1249" d="M231.538,342.115H178.705a1.208,1.208,0,0,1-1.208-1.209h0a1.208,1.208,0,0,1,1.208-1.208h52.833a1.208,1.208,0,0,1,1.209,1.208h0A1.209,1.209,0,0,1,231.538,342.115Z" fill="#3b5fb7"/>
          </g>
        </g>
      </g>
      <g id="Group_380" data-name="Group 380">
        <circle id="Ellipse_92" data-name="Ellipse 92" cx="32.505" cy="32.505" r="32.505" transform="matrix(0.233, -0.972, 0.972, 0.233, 531.681, 134.532)" fill="none" stroke="#dee3fc" stroke-miterlimit="10" stroke-width="0.79"/>
        <circle id="Ellipse_93" data-name="Ellipse 93" cx="28.26" cy="28.26" r="28.26" transform="translate(533.587 96.086) rotate(-23.868)" fill="#3945ba"/>
        <path id="Path_1250" data-name="Path 1250" d="M573.437,110.5a2.572,2.572,0,1,1-2.572-2.573A2.572,2.572,0,0,1,573.437,110.5Z" fill="#fff"/>
        <path id="Path_1251" data-name="Path 1251" d="M570.585,109.989h0a.8.8,0,0,1-1.094-.313L561.18,94.685a.8.8,0,0,1,.313-1.094h0a.8.8,0,0,1,1.094.313l8.311,14.991A.8.8,0,0,1,570.585,109.989Z" fill="#fff"/>
        <path id="Path_1252" data-name="Path 1252" d="M571.274,110.9h0a.805.805,0,0,1,1.138,0l7.19,7.191a.8.8,0,0,1,0,1.137h0a.8.8,0,0,1-1.138,0l-7.19-7.19A.805.805,0,0,1,571.274,110.9Z" fill="#fff"/>
        <g id="Group_377" data-name="Group 377">
          <line id="Line_5" data-name="Line 5" y1="3.25" transform="translate(571.038 84.625)" fill="none" stroke="#fff" stroke-linecap="round" stroke-miterlimit="10" stroke-width="2"/>
          <line id="Line_6" data-name="Line 6" x2="3.25" transform="translate(593.485 110.668)" fill="none" stroke="#fff" stroke-linecap="round" stroke-miterlimit="10" stroke-width="2"/>
          <line id="Line_7" data-name="Line 7" y2="3.25" transform="translate(570.692 133.114)" fill="none" stroke="#fff" stroke-linecap="round" stroke-miterlimit="10" stroke-width="2"/>
          <line id="Line_8" data-name="Line 8" x1="3.25" transform="translate(544.995 110.322)" fill="none" stroke="#fff" stroke-linecap="round" stroke-miterlimit="10" stroke-width="2"/>
        </g>
        <g id="Group_378" data-name="Group 378" opacity="0.5">
          <line id="Line_9" data-name="Line 9" x1="1.625" y1="2.815" transform="translate(558.08 88.004)" fill="none" stroke="#dee3fc" stroke-linecap="round" stroke-miterlimit="10" stroke-width="1"/>
          <line id="Line_10" data-name="Line 10" y1="1.625" x2="2.815" transform="translate(590.541 97.71)" fill="none" stroke="#dee3fc" stroke-linecap="round" stroke-miterlimit="10" stroke-width="1"/>
          <line id="Line_11" data-name="Line 11" x2="1.625" y2="2.815" transform="translate(582.025 130.17)" fill="none" stroke="#dee3fc" stroke-linecap="round" stroke-miterlimit="10" stroke-width="1"/>
          <line id="Line_12" data-name="Line 12" x1="2.815" y2="1.625" transform="translate(548.375 121.655)" fill="none" stroke="#dee3fc" stroke-linecap="round" stroke-miterlimit="10" stroke-width="1"/>
        </g>
        <g id="Group_379" data-name="Group 379" opacity="0.5">
          <line id="Line_13" data-name="Line 13" x1="2.815" y1="1.625" transform="translate(548.548 97.41)" fill="none" stroke="#dee3fc" stroke-linecap="round" stroke-miterlimit="10" stroke-width="1"/>
          <line id="Line_14" data-name="Line 14" y1="2.815" x2="1.625" transform="translate(582.325 88.177)" fill="none" stroke="#dee3fc" stroke-linecap="round" stroke-miterlimit="10" stroke-width="1"/>
          <line id="Line_15" data-name="Line 15" x2="2.815" y2="1.625" transform="translate(590.368 121.954)" fill="none" stroke="#dee3fc" stroke-linecap="round" stroke-miterlimit="10" stroke-width="1"/>
          <line id="Line_16" data-name="Line 16" x1="1.625" y2="2.815" transform="translate(557.781 129.997)" fill="none" stroke="#dee3fc" stroke-linecap="round" stroke-miterlimit="10" stroke-width="1"/>
        </g>
      </g>
      <g id="Group_383" data-name="Group 383">
        <rect id="Rectangle_103" data-name="Rectangle 103" width="54.833" height="54.833" rx="9.569" transform="translate(139.394 219.245)" fill="#193091"/>
        <rect id="Rectangle_104" data-name="Rectangle 104" width="54.833" height="54.833" rx="7.667" transform="translate(135.144 214.495)" fill="#7e89fd" stroke="#dee3fc" stroke-miterlimit="10" stroke-width="1"/>
        <g id="Group_382" data-name="Group 382">
          <g id="Group_381" data-name="Group 381">
            <path id="Path_1253" data-name="Path 1253" d="M172.055,235.633h-.286v-3.141a9.349,9.349,0,1,0-18.7,0v3.141h-.063a2.623,2.623,0,0,0-2.623,2.623v11.837a2.623,2.623,0,0,0,2.623,2.624h19.047a2.624,2.624,0,0,0,2.624-2.624V238.256A2.623,2.623,0,0,0,172.055,235.633Zm-16.616-3.141a6.981,6.981,0,1,1,13.962,0v3.141H155.439Z" fill="#dee3fc"/>
            <path id="Path_1254" data-name="Path 1254" d="M165.611,241.717a3.051,3.051,0,1,0-4.589,2.63.547.547,0,0,1,.277.612l-.531,1.96a1.832,1.832,0,1,0,3.537,0l-.525-1.939a.549.549,0,0,1,.284-.617A3.038,3.038,0,0,0,165.611,241.717Z" fill="#7e89fd"/>
          </g>
          <path id="Path_1255" data-name="Path 1255" d="M173.554,256.868H151.51a1.124,1.124,0,0,1-1.125-1.125h0a1.125,1.125,0,0,1,1.125-1.125h22.044a1.125,1.125,0,0,1,1.125,1.125h0A1.125,1.125,0,0,1,173.554,256.868Z" fill="#dee3fc"/>
          <path id="Path_1256" data-name="Path 1256" d="M173.554,260.681H151.51a1.125,1.125,0,0,1-1.125-1.125h0a1.124,1.124,0,0,1,1.125-1.125h22.044a1.125,1.125,0,0,1,1.125,1.125h0A1.125,1.125,0,0,1,173.554,260.681Z" fill="#dee3fc"/>
        </g>
      </g>
      <g id="Group_390" data-name="Group 390">
        <g id="Group_384" data-name="Group 384">
          <path id="Rectangle_105" data-name="Rectangle 105" d="M5.634,0H26.648a5.634,5.634,0,0,1,5.634,5.634V26.648a5.633,5.633,0,0,1-5.633,5.633H5.634A5.634,5.634,0,0,1,0,26.648V5.634A5.634,5.634,0,0,1,5.634,0Z" transform="translate(589.925 306.251)" fill="#193091"/>
          <rect id="Rectangle_106" data-name="Rectangle 106" width="32.281" height="32.281" rx="4.513" transform="translate(587.423 303.454)" fill="#7e89fd" stroke="#dee3fc" stroke-miterlimit="10" stroke-width="1"/>
        </g>
        <g id="Group_389" data-name="Group 389">
          <g id="Group_385" data-name="Group 385">
            <path id="Path_1257" data-name="Path 1257" d="M597.042,329.235a.952.952,0,0,1-.273-.038,1,1,0,0,1-.69-1.233l4.882-17.281a1,1,0,1,1,1.924.543L598,328.507A1,1,0,0,1,597.042,329.235Z" fill="#fff"/>
          </g>
          <g id="Group_386" data-name="Group 386">
            <path id="Path_1258" data-name="Path 1258" d="M605.205,329.235a.94.94,0,0,1-.272-.038,1,1,0,0,1-.691-1.233l4.883-17.281a1,1,0,1,1,1.924.543l-4.883,17.281A1,1,0,0,1,605.205,329.235Z" fill="#fff"/>
          </g>
          <g id="Group_387" data-name="Group 387">
            <path id="Path_1259" data-name="Path 1259" d="M612.2,316.679H594.923a1,1,0,0,1,0-2H612.2a1,1,0,0,1,0,2Z" fill="#fff"/>
          </g>
          <g id="Group_388" data-name="Group 388">
            <path id="Path_1260" data-name="Path 1260" d="M612.2,324.573H594.923a1,1,0,0,1,0-2H612.2a1,1,0,0,1,0,2Z" fill="#fff"/>
          </g>
        </g>
      </g>
      <g id="Group_391" data-name="Group 391">
        <path id="Path_1261" data-name="Path 1261" d="M226.873,235.991h-12.5A1.371,1.371,0,0,1,213,234.62h0a1.371,1.371,0,0,1,1.371-1.37h12.5a1.37,1.37,0,0,1,1.37,1.37h0A1.37,1.37,0,0,1,226.873,235.991Z" fill="#f0f4ff"/>
        <path id="Path_1262" data-name="Path 1262" d="M239.463,242.074H214.375A1.37,1.37,0,0,1,213,240.7h0a1.371,1.371,0,0,1,1.371-1.371h25.088a1.37,1.37,0,0,1,1.37,1.371h0A1.37,1.37,0,0,1,239.463,242.074Z" fill="#f0f4ff"/>
        <path id="Path_1263" data-name="Path 1263" d="M217.338,248.158h-2.963A1.371,1.371,0,0,1,213,246.787h0a1.37,1.37,0,0,1,1.371-1.37h2.963a1.37,1.37,0,0,1,1.37,1.37h0A1.37,1.37,0,0,1,217.338,248.158Z" fill="#f0f4ff"/>
        <path id="Path_1264" data-name="Path 1264" d="M239.463,248.158H221.994a1.37,1.37,0,0,1-1.37-1.371h0a1.37,1.37,0,0,1,1.37-1.37h17.469a1.37,1.37,0,0,1,1.37,1.37h0A1.37,1.37,0,0,1,239.463,248.158Z" fill="#f0f4ff"/>
        <path id="Path_1265" data-name="Path 1265" d="M239.463,235.991h-7.576a1.371,1.371,0,0,1-1.37-1.371h0a1.371,1.371,0,0,1,1.37-1.37h7.576a1.37,1.37,0,0,1,1.37,1.37h0A1.37,1.37,0,0,1,239.463,235.991Z" fill="#f0f4ff"/>
      </g>
      <path id="Path_1266" data-name="Path 1266" d="M168.983,422.916a8.678,8.678,0,0,0-4.456,1.224,9.346,9.346,0,0,0-18.576,2.076,7.137,7.137,0,1,0-1.323,14.15h24.355a8.725,8.725,0,1,0,0-17.45Z" fill="#fff"/>
    </g>
    <g id="Group_395" data-name="Group 395">
      <path id="Path_1267" data-name="Path 1267" d="M107.043,385.44a9.2,9.2,0,0,1,.125-3.925,38.874,38.874,0,0,0-.439-21.138c-4.671-14.585-23.6-27.5-23.6-27.5s5.139,21.524,9.364,30.688c3.093,6.71,8.5,14.345,11.506,18.366a8.973,8.973,0,0,1,1.652,3.771,157.011,157.011,0,0,1,2.61,30.251l1.421.056A158.493,158.493,0,0,0,107.043,385.44Z" fill="#dee3fc"/>
      <path id="Path_1268" data-name="Path 1268" d="M122.138,371.727a170.41,170.41,0,0,0,5.509-25.9s-16.974,14.006-18.365,24.843a36.371,36.371,0,0,0,1.157,15.1,10.326,10.326,0,0,1,.4,4.1,143.68,143.68,0,0,0-.35,28.358l1.277-.147a141.519,141.519,0,0,1,.2-26.623,10.592,10.592,0,0,1,2.338-5.625A44.458,44.458,0,0,0,122.138,371.727Z" fill="#b4c1ef"/>
      <path id="Path_1269" data-name="Path 1269" d="M139.394,345.278S121.1,352.066,116.319,367a39.842,39.842,0,0,0-.4,21.843,7.506,7.506,0,0,1,0,3.722,167.594,167.594,0,0,0-4.351,35.214h1.456a166.449,166.449,0,0,1,4.2-34.455,12.918,12.918,0,0,1,2.169-4.632c3.119-4.2,8.428-11.762,11.5-18.431C135.226,360.878,139.394,345.278,139.394,345.278Z" fill="#dee3fc"/>
      <path id="Path_1270" data-name="Path 1270" d="M107.119,408.294a50.732,50.732,0,0,0-4.224-16.6,5.668,5.668,0,0,1-.426-3,27.447,27.447,0,0,0-.427-8.927c-1.485-7.328-11.211-23.158-25.293-24.086a102.463,102.463,0,0,1,7.359,14.347c3.163,8.268,7.679,16.918,15.166,20.237a5.627,5.627,0,0,1,2.9,3.008,49.078,49.078,0,0,1,3.665,15.12Z" fill="#b4c1ef"/>
      <g id="Group_394" data-name="Group 394">
        <g id="Group_393" data-name="Group 393">
          <path id="Path_1271" data-name="Path 1271" d="M97.6,440.363h23.238l6.03-36.845a2.68,2.68,0,0,0-2.645-3.112H94.213a2.679,2.679,0,0,0-2.644,3.112Z" fill="#dee3fc"/>
        </g>
      </g>
    </g>
    <line id="Line_17" data-name="Line 17" x2="650.22" transform="translate(49.89 440.363)" fill="none" stroke="#fff" stroke-linecap="round" stroke-miterlimit="10" stroke-width="1.114"/>
  </g>
</svg>
